country_decisions = {
	curtail_estate_noble = {
		major = yes
		potential = {
			OR = {
				has_country_flag = noble_estate_in_power
				has_country_modifier = noble_power_monarchy
				has_country_modifier = noble_power_elective_monarchy
				has_country_modifier = umera_dominance_ottoman_government
				has_country_modifier = junker_dominance_prussian_monarchy
				has_country_modifier = gentry_dominance
				has_country_modifier = bushi_power_japan
				has_country_modifier = boyar_dominance
				has_country_modifier = mamluk_amir_dominance
				has_country_modifier = amir_dominance
			}
		}
		allow = {
			stability = 1
			NOT = { num_of_rebel_armies = 1 }
			NOT = { num_of_rebel_controlled_provinces = 1 }			
			NOT = {
				estate_influence = {
					estate = estate_nobles
					influence = 60
				}				
			}
		}
		effect = {
			add_stability = -3
			add_prestige = -25
			if = {
				limit = {
					has_country_modifier = noble_power_monarchy
				}
				remove_country_modifier = noble_power_monarchy
			}
			else_if = {
				limit = {
					has_country_modifier = noble_power_elective_monarchy
				}
				remove_country_modifier = noble_power_elective_monarchy
			}
			else_if = {
				limit = {
					has_country_modifier = junker_dominance_prussian_monarchy
				}
				remove_country_modifier = junker_dominance_prussian_monarchy
			}
			else_if = {
				limit = {
					has_country_modifier = umera_dominance_ottoman_government
				}
				remove_country_modifier = umera_dominance_ottoman_government
			}
			else_if = {
				limit = {
					has_country_modifier = gentry_dominance
				}
				remove_country_modifier = gentry_dominance
			}
			else_if = {
				limit = {
					has_country_modifier = bushi_power_japan
				}
				remove_country_modifier = bushi_power_japan
			}
			else_if = {
				limit = {
					has_country_modifier = boyar_dominance
				}
				remove_country_modifier = boyar_dominance
			}
			else_if = {
				limit = {
					has_country_modifier = mamluk_amir_dominance
				}
				remove_country_modifier = mamluk_amir_dominance
			}
			else_if = {
				limit = {
					has_country_modifier = mamluk_amir_dominance
				}
				remove_country_modifier = mamluk_amir_dominance
			}
			else_if = {
				limit = {
					has_country_modifier = amir_dominance
				}
				remove_country_modifier = amir_dominance
			}
			clr_country_flag = noble_estate_in_power
		}
		ai_will_do = {
			factor = 1
		}
	}
	
	curtail_estate_church = {
		major = yes
		potential = {
			has_country_flag = church_estate_in_power
		}
		allow = {
			stability = 1
			NOT = { num_of_rebel_armies = 1 }
			NOT = { num_of_rebel_controlled_provinces = 1 }			
			NOT = {
				estate_influence = {
					estate = estate_church
					influence = 60
				}				
			}
		}
		effect = {
			add_stability = -3
			add_piety = -0.5
			add_karma = -25
			add_patriarch_authority = -0.25
			add_fervor = -25
			add_church_power = -100
			clr_country_flag = church_estate_in_power
		}
		ai_will_do = {
			factor = 1
		}
	}
	
	curtail_estate_burghers = {
		major = yes
		potential = {
			has_country_flag = burghers_estate_in_power
		}
		allow = {
			stability = 1
			NOT = { num_of_rebel_armies = 1 }
			NOT = { num_of_rebel_controlled_provinces = 1 }			
			NOT = {
				estate_influence = {
					estate = estate_burghers
					influence = 60
				}				
			}
		}
		effect = {
			add_stability = -3
			capital_scope = {
				add_base_tax = -1
				add_base_production = -1
			}
			clr_country_flag = burghers_estate_in_power
		}
		ai_will_do = {
			factor = 1
		}
	}
	
	curtail_estate_nomadic_tribes = {
		major = yes
		potential = {
			has_country_flag = nomadic_tribes_estate_in_power
		}
		allow = {
			stability = 1
			NOT = { num_of_rebel_armies = 1 }
			NOT = { num_of_rebel_controlled_provinces = 1 }			
			NOT = {
				estate_influence = {
					estate = estate_nomadic_tribes
					influence = 60
				}				
			}
		}
		effect = {
			add_stability = -3
			capital_scope = {
				add_base_tax = -1
				add_base_production = -1
			}
			clr_country_flag = nomadic_tribes_estate_in_power
		}
		ai_will_do = {
			factor = 1
		}
	}
	
	curtail_estate_dhimmi = {
		major = yes
		potential = {
			has_country_flag = dhimmi_estate_in_power
		}
		allow = {
			stability = 1
			NOT = { num_of_rebel_armies = 1 }
			NOT = { num_of_rebel_controlled_provinces = 1 }			
			NOT = {
				estate_influence = {
					estate = estate_dhimmi
					influence = 60
				}				
			}
		}
		effect = {
			add_stability = -3
			add_piety = 0.5
			clr_country_flag = dhimmi_estate_in_power
		}
		ai_will_do = {
			factor = 1
		}
	}
	
	#Anbennar
	curtail_estate_artificers = {
		major = yes
		potential = {
			has_country_flag = artificers_estate_in_power
		}
		allow = {
			stability = 1
			NOT = { num_of_rebel_armies = 1 }
			NOT = { num_of_rebel_controlled_provinces = 1 }			
			NOT = {
				estate_influence = {
					estate = estate_artificers
					influence = 60
				}				
			}
		}
		effect = {
			add_stability = -3
			add_inflation = 4
			capital_scope = {
				add_base_tax = -1
				add_base_production = -1
			}
			clr_country_flag = artificers_estate_in_power
		}
		ai_will_do = {
			factor = 1
		}
	}	
	
	curtail_estate_adventurers = {
		major = yes
		potential = {
			has_country_flag = adventurers_estate_in_power
		}
		allow = {
			stability = 1
			NOT = { num_of_rebel_armies = 1 }
			NOT = { num_of_rebel_controlled_provinces = 1 }			
			NOT = {
				estate_influence = {
					estate = estate_adventurers
					influence = 60
				}				
			}
		}
		effect = {
			add_stability = -3
			add_prestige = -25
			capital_scope = {
				local_autonomy = 0.5
			}
			clr_country_flag = adventurers_estate_in_power
			if = {
				limit = {
					has_country_modifier = adventurer_dominance
				}
				remove_country_modifier = adventurer_dominance
			}
		}
		ai_will_do = {
			factor = 1
		}
	}	
	
	curtail_estate_mages = {
		major = yes
		potential = {
			has_country_flag = mages_estate_in_power
		}
		allow = {
			stability = 1
			NOT = { num_of_rebel_armies = 1 }
			NOT = { num_of_rebel_controlled_provinces = 1 }			
			NOT = {
				estate_influence = {
					estate = estate_mages
					influence = 60
				}				
			}
		}
		effect = {
			add_stability = -3
			add_prestige = -25
			capital_scope = {
				local_autonomy = 0.5
			}
			clr_country_flag = mages_estate_in_power
			if = {
				limit = {
					has_country_modifier = mages_dominance
				}
				remove_country_modifier = mages_dominance
			}
		}
		ai_will_do = {
			factor = 1
		}
	}
}