namespace = debug

# Swap mission
country_event = {
	id = debug.1
	title = debug.1.t
	desc = debug.1.d
	picture = GOOD_WITH_MONARCH_eventPicture
	
	fire_only_once = yes
	
	is_triggered_only = yes
	
	trigger = {
		always = yes
	}
	
	option = {
		name = debug.1.a
		
		swap_non_generic_missions = yes
	}
}
