aelantiri_tech_group = {
	OR = {
		technology_group = tech_north_aelantiri
	}
}

ruler_save_spell_schools = {
	if = {
		limit = {
			is_abjuration_1 = yes
		}
		set_country_flag = saved_abjuration_1
	}
	if = {
		limit = {
			is_abjuration_2 = yes
		}
		set_country_flag = saved_abjuration_2
	}
	if = {
		limit = {
			is_abjuration_3 = yes
		}
		set_country_flag = saved_abjuration_3
	}
	
	if = {
		limit = {
			is_conjuration_1 = yes
		}
		set_country_flag = saved_conjuration_1
	}
	if = {
		limit = {
			is_conjuration_2 = yes
		}
		set_country_flag = saved_conjuration_2
	}
	if = {
		limit = {
			is_conjuration_3 = yes
		}
		set_country_flag = saved_conjuration_3
	}
	
	if = {
		limit = {
			is_divination_1 = yes
		}
		set_country_flag = saved_divination_1
	}
	if = {
		limit = {
			is_divination_2 = yes
		}
		set_country_flag = saved_divination_2
	}
	if = {
		limit = {
			is_divination_3 = yes
		}
		set_country_flag = saved_divination_3
	}
	
	if = {
		limit = {
			is_enchantment_1 = yes
		}
		set_country_flag = saved_enchantment_1
	}
	if = {
		limit = {
			is_enchantment_2 = yes
		}
		set_country_flag = saved_enchantment_2
	}
	if = {
		limit = {
			is_enchantment_3 = yes
		}
		set_country_flag = saved_enchantment_3
	}
	
	if = {
		limit = {
			is_evocation_1 = yes
		}
		set_country_flag = saved_evocation_1
	}
	if = {
		limit = {
			is_evocation_2 = yes
		}
		set_country_flag = saved_evocation_2
	}
	if = {
		limit = {
			is_evocation_3 = yes
		}
		set_country_flag = saved_evocation_3
	}
	
	if = {
		limit = {
			is_illusion_1 = yes
		}
		set_country_flag = saved_illusion_1
	}
	if = {
		limit = {
			is_illusion_2 = yes
		}
		set_country_flag = saved_illusion_2
	}
	if = {
		limit = {
			is_illusion_3 = yes
		}
		set_country_flag = saved_illusion_3
	}
	
	if = {
		limit = {
			is_necromancy_1 = yes
		}
		set_country_flag = saved_necromancy_1
	}
	if = {
		limit = {
			is_necromancy_2 = yes
		}
		set_country_flag = saved_necromancy_2
	}
	if = {
		limit = {
			is_necromancy_3 = yes
		}
		set_country_flag = saved_necromancy_3
	}
	
	if = {
		limit = {
			is_transmutation_1 = yes
		}
		set_country_flag = saved_transmutation_1
	}
	if = {
		limit = {
			is_transmutation_2 = yes
		}
		set_country_flag = saved_transmutation_2
	}
	if = {
		limit = {
			is_transmutation_3 = yes
		}
		set_country_flag = saved_transmutation_3
	}
	
}

ruler_give_saved_spell_schools = {
	if = {
		limit = {
			has_country_flag = saved_abjuration_1
		}
		set_ruler_flag = abjuration_1
	}
	if = {
		limit = {
			has_country_flag = saved_abjuration_2
		}
		set_ruler_flag = abjuration_1
		set_ruler_flag = abjuration_2
	}
	if = {
		limit = {
			has_country_flag = saved_abjuration_3
		}
		set_ruler_flag = abjuration_1
		set_ruler_flag = abjuration_2
		set_ruler_flag = abjuration_3
	}
	
	if = {
		limit = {
			has_country_flag = saved_conjuration_1
		}
		set_ruler_flag = conjuration_1
	}
	if = {
		limit = {
			has_country_flag = saved_conjuration_2
		}
		set_ruler_flag = conjuration_1
		set_ruler_flag = conjuration_2
	}
	if = {
		limit = {
			has_country_flag = saved_conjuration_3
		}
		set_ruler_flag = conjuration_1
		set_ruler_flag = conjuration_2
		set_ruler_flag = conjuration_3
	}
	
	if = {
		limit = {
			has_country_flag = saved_divination_1
		}
		set_ruler_flag = divination_1
	}
	if = {
		limit = {
			has_country_flag = saved_divination_2
		}
		set_ruler_flag = divination_1
		set_ruler_flag = divination_2
	}
	if = {
		limit = {
			has_country_flag = saved_divination_3
		}
		set_ruler_flag = divination_1
		set_ruler_flag = divination_2
		set_ruler_flag = divination_3
	}
	
	if = {
		limit = {
			has_country_flag = saved_enchantment_1
		}
		set_ruler_flag = enchantment_1
	}
	if = {
		limit = {
			has_country_flag = saved_enchantment_2
		}
		set_ruler_flag = enchantment_1
		set_ruler_flag = enchantment_2
	}
	if = {
		limit = {
			has_country_flag = saved_enchantment_3
		}
		set_ruler_flag = enchantment_1
		set_ruler_flag = enchantment_2
		set_ruler_flag = enchantment_3
	}
	
	if = {
		limit = {
			has_country_flag = saved_evocation_1
		}
		set_ruler_flag = evocation_1
	}
	if = {
		limit = {
			has_country_flag = saved_evocation_2
		}
		set_ruler_flag = evocation_1
		set_ruler_flag = evocation_2
	}
	if = {
		limit = {
			has_country_flag = saved_evocation_3
		}
		set_ruler_flag = evocation_1
		set_ruler_flag = evocation_2
		set_ruler_flag = evocation_3
	}
	
	if = {
		limit = {
			has_country_flag = saved_illusion_1
		}
		set_ruler_flag = illusion_1
	}
	if = {
		limit = {
			has_country_flag = saved_illusion_2
		}
		set_ruler_flag = illusion_1
		set_ruler_flag = illusion_2
	}
	if = {
		limit = {
			has_country_flag = saved_illusion_3
		}
		set_ruler_flag = illusion_1
		set_ruler_flag = illusion_2
		set_ruler_flag = illusion_3
	}
	
	if = {
		limit = {
			has_country_flag = saved_necromancy_1
		}
		set_ruler_flag = necromancy_1
	}
	if = {
		limit = {
			has_country_flag = saved_necromancy_2
		}
		set_ruler_flag = necromancy_1
		set_ruler_flag = necromancy_2
	}
	if = {
		limit = {
			has_country_flag = saved_necromancy_3
		}
		set_ruler_flag = necromancy_1
		set_ruler_flag = necromancy_2
		set_ruler_flag = necromancy_3
	}
	
	if = {
		limit = {
			has_country_flag = saved_transmutation_1
		}
		set_ruler_flag = transmutation_1
	}
	if = {
		limit = {
			has_country_flag = saved_transmutation_2
		}
		set_ruler_flag = transmutation_1
		set_ruler_flag = transmutation_2
	}
	if = {
		limit = {
			has_country_flag = saved_transmutation_3
		}
		set_ruler_flag = transmutation_1
		set_ruler_flag = transmutation_2
		set_ruler_flag = transmutation_3
	}
}

magic_project_clear_lichdom_flags = {
	set_ruler_flag = magic_project_lichdom_complete
	clr_ruler_flag = magic_project_lichdom_started
	clr_ruler_flag = magic_project_lichdom_1
	clr_ruler_flag = magic_project_lichdom_2
	clr_ruler_flag = magic_project_lichdom_3
	clr_ruler_flag = magic_project_lichdom_4
	clr_ruler_flag = magic_project_lichdom_5
	clr_ruler_flag = magic_project_lichdom_6
	clr_ruler_flag = magic_project_lichdom_7
	clr_ruler_flag = magic_project_lichdom_8
	clr_ruler_flag = magic_project_lichdom_9
	clr_ruler_flag = magic_project_lichdom_10
	
	clr_ruler_flag = magic_project_lichdom_1_adventurers
	clr_ruler_flag = magic_project_lichdom_1_state
	clr_ruler_flag = magic_project_lichdom_1_myself
	clr_ruler_flag = magic_project_lichdom_2_amulet
	clr_ruler_flag = magic_project_lichdom_2_box
	clr_ruler_flag = magic_project_lichdom_5_a
	clr_ruler_flag = magic_project_lichdom_5_b
	clr_ruler_flag = magic_project_lichdom_5_c
	clr_ruler_flag = magic_project_lichdom_6_a
	clr_ruler_flag = magic_project_lichdom_6_b
	clr_ruler_flag = magic_project_lichdom_6_c
	clr_ruler_flag = magic_project_lichdom_7_heart
	clr_ruler_flag = magic_project_lichdom_7_unicorn
	clr_ruler_flag = magic_project_lichdom_8_a
}

calculate_lichdom_chance = {
	set_variable={
		which=$which$ value=0
	}
	
	if = {
		limit = {
			has_ruler_flag = magic_project_lichdom_2_box
		}
		change_variable = {
			which = $which$
			value = 1
		}
	}
	if = {
		limit = {
			has_ruler_flag = magic_project_lichdom_5_b
		}
		change_variable = {
			which = $which$
			value = 1
		}
	}
	if = {
		limit = {
			has_ruler_flag = magic_project_lichdom_5_c
		}
		change_variable = {
			which = $which$
			value = 2
		}
	}
	if = {
		limit = {
			has_ruler_flag = magic_project_lichdom_6_b
		}
		change_variable = {
			which = $which$
			value = 1
		}
	}
	if = {
		limit = {
			has_ruler_flag = magic_project_lichdom_6_c
		}
		change_variable = {
			which = $which$
			value = 2
		}
	}
	if = {
		limit = {
			has_ruler_flag = magic_project_lichdom_7_unicorn
		}
		change_variable = {
			which = $which$
			value = 1
		}
	}
	if = {
		limit = {
			has_ruler_flag = magic_project_lichdom_8_a
		}
		change_variable = {
			which = $which$
			value = 1
		}
	}
}

count_provinces_in_capital_area = {
	set_variable={
		which=$which$ value=0
	}
	
	if = {
		limit = {
			num_of_owned_provinces_with = {
				value = 1
				is_in_capital_area = yes
			}
		}
		change_variable = {
			which = $which$
			value = 1
		}
	}
	
	if = {
		limit = {
			num_of_owned_provinces_with = {
				value = 2
				is_in_capital_area = yes
			}
		}
		change_variable = {
			which = $which$
			value = 1
		}
	}
	
	if = {
		limit = {
			num_of_owned_provinces_with = {
				value = 4
				is_in_capital_area = yes
			}
		}
		change_variable = {
			which = $which$
			value = 1
		}
	}
	
	if = {
		limit = {
			num_of_owned_provinces_with = {
				value = 6
				is_in_capital_area = yes
			}
		}
		change_variable = {
			which = $which$
			value = 1
		}	
	}
	
	if = {
		limit = {
			num_of_owned_provinces_with = {
				value = 8
				is_in_capital_area = yes
			}
		}
		change_variable = {
			which = $which$
			value = 1
		}
	}
	
	if = {
		limit = {
			num_of_owned_provinces_with = {
				value = 10
				is_in_capital_area = yes
			}
		}
		change_variable = {
			which = $which$
			value = 1
		}
	}
	
	if = {
		limit = {
			num_of_owned_provinces_with = {
				value = 12
				is_in_capital_area = yes
			}
		}
		change_variable = {
			which = $which$
			value = 1
		}
	}
	
	if = {
		limit = {
			num_of_owned_provinces_with = {
				value = 14
				is_in_capital_area = yes
			}
		}
		change_variable = {
			which = $which$
			value = 1
		}
	}
	
	if = {
		limit = {
			num_of_owned_provinces_with = {
				value = 16
				is_in_capital_area = yes
			}
		}
		change_variable = {
			which = $which$
			value = 1
		}
	}
	
	if = {
		limit = {
			num_of_owned_provinces_with = {
				value = 18
				is_in_capital_area = yes
			}
		}
		change_variable = {
			which = $which$
			value = 1
		}
	}
	
	if = {
		limit = {
			num_of_owned_provinces_with = {
				value = 20
				is_in_capital_area = yes
			}
		}
		change_variable = {
			which = $which$
			value = 1
		}
	}
	
	if = {
		limit = {
			num_of_owned_provinces_with = {
				value = 22
				is_in_capital_area = yes
			}
		}
		change_variable = {
			which = $which$
			value = 1
		}
	}
	
	if = {
		limit = {
			num_of_owned_provinces_with = {
				value = 24
				is_in_capital_area = yes
			}
		}
		change_variable = {
			which = $which$
			value = 1
		}
	}
	
	if = {
		limit = {
			num_of_owned_provinces_with = {
				value = 26
				is_in_capital_area = yes
			}
		}
		change_variable = {
			which = $which$
			value = 1
		}
	}
	
	if = {
		limit = {
			num_of_owned_provinces_with = {
				value = 28
				is_in_capital_area = yes
			}
		}
		change_variable = {
			which = $which$
			value = 1
		}
	}
	
	if = {
		limit = {
			num_of_owned_provinces_with = {
				value = 30
				is_in_capital_area = yes
			}
		}
		change_variable = {
			which = $which$
			value = 1
		}
	}
	
	if = {
		limit = {
			num_of_owned_provinces_with = {
				value = 32
				is_in_capital_area = yes
			}
		}
		change_variable = {
			which = $which$
			value = 1
		}
	}
	
	if = {
		limit = {
			num_of_owned_provinces_with = {
				value = 34
				is_in_capital_area = yes
			}
		}
		change_variable = {
			which = $which$
			value = 1
		}
	}
	
	if = {
		limit = {
			num_of_owned_provinces_with = {
				value = 36
				is_in_capital_area = yes
			}
		}
		change_variable = {
			which = $which$
			value = 1
		}
	}
	
	if = {
		limit = {
			num_of_owned_provinces_with = {
				value = 38
				is_in_capital_area = yes
			}
		}
		change_variable = {
			which = $which$
			value = 1
		}
	}
	
	if = {
		limit = {
			num_of_owned_provinces_with = {
				value = 40
				is_in_capital_area = yes
			}
		}
		change_variable = {
			which = $which$
			value = 1
		}
	}
	
	if = {
		limit = {
			num_of_owned_provinces_with = {
				value = 42
				is_in_capital_area = yes
			}
		}
		change_variable = {
			which = $which$
			value = 1
		}
	}
	
	if = {
		limit = {
			num_of_owned_provinces_with = {
				value = 44
				is_in_capital_area = yes
			}
		}
		change_variable = {
			which = $which$
			value = 1
		}
	}
	
	if = {
		limit = {
			num_of_owned_provinces_with = {
				value = 46
				is_in_capital_area = yes
			}
		}
		change_variable = {
			which = $which$
			value = 1
		}
	}
	
	if = {
		limit = {
			num_of_owned_provinces_with = {
				value = 48
				is_in_capital_area = yes
			}
		}
		change_variable = {
			which = $which$
			value = 1
		}
	}
	
	if = {
		limit = {
			num_of_owned_provinces_with = {
				value = 50
				is_in_capital_area = yes
			}
		}
		change_variable = {
			which = $which$
			value = 1
		}
	}
	
	if = {
		limit = {
			num_of_owned_provinces_with = {
				value = 60
				is_in_capital_area = yes
			}
		}
		change_variable = {
			which = $which$
			value = 10
		}
	}
	
	if = {
		limit = {
			num_of_owned_provinces_with = {
				value = 70
				is_in_capital_area = yes
			}
		}
		change_variable = {
			which = $which$
			value = 10
		}
	}
	
	if = {
		limit = {
			num_of_owned_provinces_with = {
				value = 80
				is_in_capital_area = yes
			}
		}
		change_variable = {
			which = $which$
			value = 10
		}
	}
	
	if = {
		limit = {
			num_of_owned_provinces_with = {
				value = 90
				is_in_capital_area = yes
			}
		}
		change_variable = {
			which = $which$
			value = 10
		}
	}
	
	if = {
		limit = {
			num_of_owned_provinces_with = {
				value = 100
				is_in_capital_area = yes
			}
		}
		change_variable = {
			which = $which$
			value = 10
		}
	}
	
	if = {
		limit = {
			num_of_owned_provinces_with = {
				value = 110
				is_in_capital_area = yes
			}
		}
		change_variable = {
			which = $which$
			value = 10
		}
	}
	
	if = {
		limit = {
			num_of_owned_provinces_with = {
				value = 120
				is_in_capital_area = yes
			}
		}
		change_variable = {
			which = $which$
			value = 10
		}
	}
	
	if = {
		limit = {
			num_of_owned_provinces_with = {
				value = 140
				is_in_capital_area = yes
			}
		}
		change_variable = {
			which = $which$
			value = 10
		}
	}
	
	if = {
		limit = {
			num_of_owned_provinces_with = {
				value = 160
				is_in_capital_area = yes
			}
		}
		change_variable = {
			which = $which$
			value = 10
		}
	}
	
	if = {
		limit = {
			num_of_owned_provinces_with = {
				value = 180
				is_in_capital_area = yes
			}
		}
		change_variable = {
			which = $which$
			value = 10
		}
	}
	
	if = {
		limit = {
			num_of_owned_provinces_with = {
				value = 200
				is_in_capital_area = yes
			}
		}
		change_variable = {
			which = $which$
			value = 10
		}
	}
	
	if = {
		limit = {
			num_of_owned_provinces_with = {
				value = 225
				is_in_capital_area = yes
			}
		}
		change_variable = {
			which = $which$
			value = 25
		}
	}
	
	if = {
		limit = {
			num_of_owned_provinces_with = {
				value = 250
				is_in_capital_area = yes
			}
		}
		change_variable = {
			which = $which$
			value = 25
		}
	}
	
	if = {
		limit = {
			num_of_owned_provinces_with = {
				value = 275
				is_in_capital_area = yes
			}
		}
		change_variable = {
			which = $which$
			value = 25
		}
	}
	
	if = {
		limit = {
			num_of_owned_provinces_with = {
				value = 300
				is_in_capital_area = yes
			}
		}
		change_variable = {
			which = $which$
			value = 25
		}
	}
	
	if = {
		limit = {
			num_of_owned_provinces_with = {
				value = 325
				is_in_capital_area = yes
			}
		}
		change_variable = {
			which = $which$
			value = 25
		}
	}
	
	if = {
		limit = {
			num_of_owned_provinces_with = {
				value = 350
				is_in_capital_area = yes
			}
		}
		change_variable = {
			which = $which$
			value = 25
		}
	}
	
	if = {
		limit = {
			num_of_owned_provinces_with = {
				value = 375
				is_in_capital_area = yes
			}
		}
		change_variable = {
			which = $which$
			value = 25
		}
	}
	
	if = {
		limit = {
			num_of_owned_provinces_with = {
				value = 400
				is_in_capital_area = yes
			}
		}
		change_variable = {
			which = $which$
			value = 25
		}
	}
	
	if = {
		limit = {
			num_of_owned_provinces_with = {
				value = 425
				is_in_capital_area = yes
			}
		}
		change_variable = {
			which = $which$
			value = 25
		}
	}
	
	if = {
		limit = {
			num_of_owned_provinces_with = {
				value = 450
				is_in_capital_area = yes
			}
		}
		change_variable = {
			which = $which$
			value = 25
		}
	}
	
	if = {
		limit = {
			num_of_owned_provinces_with = {
				value = 475
				is_in_capital_area = yes
			}
		}
		change_variable = {
			which = $which$
			value = 25
		}
	}
	
	if = {
		limit = {
			num_of_owned_provinces_with = {
				value = 500
				is_in_capital_area = yes
			}
		}
		change_variable = {
			which = $which$
			value = 25
		}
	}
}

magic_ruler_give_contextual_spell_school = {
	#Yeah eventually lol
}

magic_ruler_give_random_spell_school = {
	random_list = {
		10 = {
			if = {
				limit = {
					is_abjuration_1 = yes
				}
				set_ruler_flag = abjuration_2
			}
			else_if = {
				limit = {
					is_abjuration_2 = yes
				}
				set_ruler_flag = abjuration_3
			}
			else = {
				set_ruler_flag = abjuration_1
			}
		}
		10 = {
			if = {
				limit = {
					is_conjuration_1 = yes
				}
				set_ruler_flag = conjuration_2
			}
			else_if = {
				limit = {
					is_conjuration_2 = yes
				}
				set_ruler_flag = conjuration_3
			}
			else = {
				set_ruler_flag = conjuration_1
			}
		}
		10 = {
			if = {
				limit = {
					is_divination_1 = yes
				}
				set_ruler_flag = divination_2
			}
			else_if = {
				limit = {
					is_divination_2 = yes
				}
				set_ruler_flag = divination_3
			}
			else = {
				set_ruler_flag = divination_1
			}
		}
		10 = {
			if = {
				limit = {
					is_enchantment_1 = yes
				}
				set_ruler_flag = enchantment_2
			}
			else_if = {
				limit = {
					is_enchantment_2 = yes
				}
				set_ruler_flag = enchantment_3
			}
			else = {
				set_ruler_flag = enchantment_1
			}
		}
		10 = {
			if = {
				limit = {
					is_evocation_1 = yes
				}
				set_ruler_flag = evocation_2
			}
			else_if = {
				limit = {
					is_evocation_2 = yes
				}
				set_ruler_flag = evocation_3
			}
			else = {
				set_ruler_flag = evocation_1
			}
		}
		10 = {
			if = {
				limit = {
					is_illusion_1 = yes
				}
				set_ruler_flag = illusion_2
			}
			else_if = {
				limit = {
					is_illusion_2 = yes
				}
				set_ruler_flag = illusion_3
			}
			else = {
				set_ruler_flag = illusion_1
			}
		}
		10 = {
			if = {
				limit = {
					is_necromancy_1 = yes
				}
				set_ruler_flag = necromancy_2
			}
			else_if = {
				limit = {
					is_necromancy_2 = yes
				}
				set_ruler_flag = necromancy_3
			}
			else = {
				set_ruler_flag = necromancy_1
			}
		}
		10 = {
			if = {
				limit = {
					is_transmutation_1 = yes
				}
				set_ruler_flag = transmutation_2
			}
			else_if = {
				limit = {
					is_transmutation_2 = yes
				}
				set_ruler_flag = transmutation_3
			}
			else = {
				set_ruler_flag = transmutation_1
			}
		}
	}
}

magic_ruler_give_random_adm_school = {
	random_list = {
		34 = {
			if = {
				limit = {
					is_conjuration_1 = yes
				}
				set_ruler_flag = conjuration_2
			}
			else_if = {
				limit = {
					is_conjuration_2 = yes
				}
				set_ruler_flag = conjuration_3
			}
			else = {
				set_ruler_flag = conjuration_1
			}
		}
		33 = {
			if = {
				limit = {
					is_transmutation_1 = yes
				}
				set_ruler_flag = transmutation_2
			}
			else_if = {
				limit = {
					is_transmutation_2 = yes
				}
				set_ruler_flag = transmutation_3
			}
			else = {
				set_ruler_flag = transmutation_1
			}
		}
		33 = {
			if = {
				limit = {
					is_divination_1 = yes
				}
				set_ruler_flag = divination_2
			}
			else_if = {
				limit = {
					is_divination_2 = yes
				}
				set_ruler_flag = divination_3
			}
			else = {
				set_ruler_flag = divination_1
			}
		}
	}
}

magic_ruler_give_random_dip_school = {
	random_list = {
		34 = {
			if = {
				limit = {
					is_abjuration_1 = yes
				}
				set_ruler_flag = abjuration_2
			}
			else_if = {
				limit = {
					is_abjuration_2 = yes
				}
				set_ruler_flag = abjuration_3
			}
			else = {
				set_ruler_flag = abjuration_1
			}
		}
		33 = {
			if = {
				limit = {
					is_enchantment_1 = yes
				}
				set_ruler_flag = enchantment_2
			}
			else_if = {
				limit = {
					is_enchantment_2 = yes
				}
				set_ruler_flag = enchantment_3
			}
			else = {
				set_ruler_flag = enchantment_1
			}
		}
		33 = {
			if = {
				limit = {
					is_necromancy_1 = yes
				}
				set_ruler_flag = necromancy_2
			}
			else_if = {
				limit = {
					is_necromancy_2 = yes
				}
				set_ruler_flag = necromancy_3
			}
			else = {
				set_ruler_flag = necromancy_1
			}
		}
	}
}

magic_ruler_give_random_mil_school = {
	random_list = {
		50 = {
			if = {
				limit = {
					is_evocation_1 = yes
				}
				set_ruler_flag = evocation_2
			}
			else_if = {
				limit = {
					is_evocation_2 = yes
				}
				set_ruler_flag = evocation_3
			}
			else = {
				set_ruler_flag = evocation_1
			}
		}
		50 = {
			if = {
				limit = {
					is_abjuration_1 = yes
				}
				set_ruler_flag = abjuration_2
			}
			else_if = {
				limit = {
					is_abjuration_2 = yes
				}
				set_ruler_flag = abjuration_3
			}
			else = {
				set_ruler_flag = abjuration_1
			}
		}
	}
}


clear_witch_king_points = {
	#variable is set in magic ruler initialization
	hidden_effect = {
		set_variable = {
			which = pointsWitchKing
			value = 0
		}
	}
}

increase_witch_king_points_small = {
	#variable is set in magic ruler initialization
	hidden_effect = {
		change_variable = {
			which = pointsWitchKing
			value = 1
		}
	}
}

increase_witch_king_points_medium = {
	#variable is set in magic ruler initialization
	hidden_effect = {
		change_variable = {
			which = pointsWitchKing
			value = 2
		}
	}
}

increase_witch_king_points_large = {
	#variable is set in magic ruler initialization
	hidden_effect = {
		change_variable = {
			which = pointsWitchKing
			value = 3
		}
	}
}

magic_project_clear_homunculus_flags = {
		hidden_effect = {
			clr_ruler_flag = magic_project_homunculus_started
			clr_ruler_flag = magic_project_homunculus_1
			clr_ruler_flag = magic_project_homunculus_2
			clr_ruler_flag = magic_project_homunculus_3
			clr_ruler_flag = magic_project_homunculus_4
			clr_ruler_flag = magic_project_homunculus_5
			clr_ruler_flag = magic_project_homunculus_complete
			
			clr_ruler_flag = homunculus_current_male
			clr_ruler_flag = homunculus_current_female
			clr_ruler_flag = homunculus_current_androgyne
			clr_ruler_flag = homunculus_current_humanlike
			clr_ruler_flag = homunculus_current_artificial
		}
}

casted_foresight_spell_flag = {
	if = {
		limit = { 
			has_ruler_flag = foresight_spell_1
			NOT = { has_ruler_flag = foresight_spell_2 }
		}
		set_ruler_flag = foresight_spell_2
	}
	else_if = {
		limit = { 
			has_ruler_flag = foresight_spell_2
			NOT = { has_ruler_flag = foresight_spell_3 }
		}
		set_ruler_flag = foresight_spell_3
	}
	else_if = {
		limit = { 
			has_ruler_flag = foresight_spell_3
			NOT = { has_ruler_flag = foresight_spell_4 }
		}
		set_ruler_flag = foresight_spell_4
	}
	else_if = {
		limit = { 
			has_ruler_flag = foresight_spell_4
			NOT = { has_ruler_flag = foresight_spell_5 }
		}
		set_ruler_flag = foresight_spell_5
	}
	else_if = {
		limit = { 
			has_ruler_flag = foresight_spell_5
			NOT = { has_ruler_flag = foresight_spell_6 }
		}
		set_ruler_flag = foresight_spell_6
	}
	else_if = {
		limit = { 
			has_ruler_flag = foresight_spell_6
			NOT = { has_ruler_flag = foresight_spell_7 }
		}
		set_ruler_flag = foresight_spell_7
	}
	else_if = {
		limit = { 
			has_ruler_flag = foresight_spell_7
			NOT = { has_ruler_flag = foresight_spell_8 }
		}
		set_ruler_flag = foresight_spell_8
	}
	else_if = {
		limit = { 
			has_ruler_flag = foresight_spell_8
			NOT = { has_ruler_flag = foresight_spell_9 }
		}
		set_ruler_flag = foresight_spell_9
	}
	else_if = {
		limit = { 
			has_ruler_flag = foresight_spell_9
			NOT = { has_ruler_flag = foresight_spell_10 }
		}
		set_ruler_flag = foresight_spell_10
	}
	else_if = {
		limit = { 
			has_ruler_flag = foresight_spell_10
			NOT = { has_ruler_flag = foresight_spell_11 }
		}
		set_ruler_flag = foresight_spell_11
	}
	else_if = {
		limit = { 
			has_ruler_flag = foresight_spell_11
			NOT = { has_ruler_flag = foresight_spell_12 }
		}
		set_ruler_flag = foresight_spell_12
	}
	else_if = {
		limit = { 
			has_ruler_flag = foresight_spell_12
			NOT = { has_ruler_flag = foresight_spell_13 }
		}
		set_ruler_flag = foresight_spell_13
	}
	else_if = {
		limit = { 
			has_ruler_flag = foresight_spell_13
			NOT = { has_ruler_flag = foresight_spell_14 }
		}
		set_ruler_flag = foresight_spell_14
	}
	else_if = {
		limit = { 
			has_ruler_flag = foresight_spell_14
			NOT = { has_ruler_flag = foresight_spell_15 }
		}
		set_ruler_flag = foresight_spell_15
	}
	else_if = {
		limit = { 
			has_ruler_flag = foresight_spell_15
			NOT = { has_ruler_flag = foresight_spell_16 }
		}
		set_ruler_flag = foresight_spell_16
	}
	else_if = {
		limit = { 
			has_ruler_flag = foresight_spell_16
			NOT = { has_ruler_flag = foresight_spell_17 }
		}
		set_ruler_flag = foresight_spell_17
	}
	else_if = {
		limit = { 
			has_ruler_flag = foresight_spell_17
			NOT = { has_ruler_flag = foresight_spell_18 }
		}
		set_ruler_flag = foresight_spell_18
	}
	else_if = {
		limit = { 
			has_ruler_flag = foresight_spell_18
			NOT = { has_ruler_flag = foresight_spell_19 }
		}
		set_ruler_flag = foresight_spell_19
	}
	else_if = {
		limit = { 
			has_ruler_flag = foresight_spell_19
			NOT = { has_ruler_flag = foresight_spell_20 }
		}
		set_ruler_flag = foresight_spell_20
	}
	else = {
		set_ruler_flag = foresight_spell_1
	}
}

apply_foresight_spell = {
	if = {
		limit = {
			#has_ruler_flag = foresight_spell_1
		}
		random_list = {
			99 = {
				add_ruler_modifier = {
					name = magic_realm_divination_foresight
					duration = 365
				}
			}
			1 = {
				add_ruler_modifier = {
					name = magic_realm_divination_foresight_madness
					duration = -1
				}
				change_adm = -6
				change_dip = -6
				change_mil = -6
			}
		}
	}
	if = {
		limit = {
			has_ruler_flag = foresight_spell_2
		}
		random_list = {
			98 = {
				add_ruler_modifier = {
					name = magic_realm_divination_foresight
					duration = 365
				}
			}
			2 = {
				add_ruler_modifier = {
					name = magic_realm_divination_foresight_madness
					duration = -1
				}
				change_adm = -6
				change_dip = -6
				change_mil = -6
			}
		}
	}
	if = {
		limit = {
			has_ruler_flag = foresight_spell_3
		}
		random_list = {
			97 = {
				add_ruler_modifier = {
					name = magic_realm_divination_foresight
					duration = 365
				}
			}
			3 = {
				add_ruler_modifier = {
					name = magic_realm_divination_foresight_madness
					duration = -1
				}
				change_adm = -6
				change_dip = -6
				change_mil = -6
			}

		}
	}
	if = {
		limit = {
			has_ruler_flag = foresight_spell_4
		}
		random_list = {
			96 = {
				add_ruler_modifier = {
					name = magic_realm_divination_foresight
					duration = 365
				}
			}
			4 = {
				add_ruler_modifier = {
					name = magic_realm_divination_foresight_madness
					duration = -1
				}
				change_adm = -6
				change_dip = -6
				change_mil = -6
			}
		}
	}
	if = {
		limit = {
			has_ruler_flag = foresight_spell_5
		}
		random_list = {
			95 = {
				add_ruler_modifier = {
					name = magic_realm_divination_foresight
					duration = 365
				}
			}
			5 = {
				add_ruler_modifier = {
					name = magic_realm_divination_foresight_madness
					duration = -1
				}
				change_adm = -6
				change_dip = -6
				change_mil = -6
			}
		}
	}
	if = {
		limit = {
			has_ruler_flag = foresight_spell_6
		}
		random_list = {
			94 = {
				add_ruler_modifier = {
					name = magic_realm_divination_foresight
					duration = 365
				}
			}
			6 = {
				add_ruler_modifier = {
					name = magic_realm_divination_foresight_madness
					duration = -1
				}
				change_adm = -6
				change_dip = -6
				change_mil = -6
			}
		}
	}
	if = {
		limit = {
			has_ruler_flag = foresight_spell_7
		}
		random_list = {
			93 = {
				add_ruler_modifier = {
					name = magic_realm_divination_foresight
					duration = 365
				}
			}
			7 = {
				add_ruler_modifier = {
					name = magic_realm_divination_foresight_madness
					duration = -1
				}
				change_adm = -6
				change_dip = -6
				change_mil = -6
			}
		}
	}
	if = {
		limit = {
			has_ruler_flag = foresight_spell_8
		}
		random_list = {
			92 = {
				add_ruler_modifier = {
					name = magic_realm_divination_foresight
					duration = 365
				}
			}
			8 = {
				add_ruler_modifier = {
					name = magic_realm_divination_foresight_madness
					duration = -1
				}
				change_adm = -6
				change_dip = -6
				change_mil = -6
			}
		}
	}
	if = {
		limit = {
			has_ruler_flag = foresight_spell_9
		}
		random_list = {
			91 = {
				add_ruler_modifier = {
					name = magic_realm_divination_foresight
					duration = 365
				}
			}
			9 = {
				add_ruler_modifier = {
					name = magic_realm_divination_foresight_madness
					duration = -1
				}
				change_adm = -6
				change_dip = -6
				change_mil = -6
			}
		}
	}
	if = {
		limit = {
			has_ruler_flag = foresight_spell_10
		}
		random_list = {
			90 = {
				add_ruler_modifier = {
					name = magic_realm_divination_foresight
					duration = 365
				}
			}
			10 = {
				add_ruler_modifier = {
					name = magic_realm_divination_foresight_madness
					duration = -1
				}
				change_adm = -6
				change_dip = -6
				change_mil = -6
			}
		}
	}
	if = {
		limit = {
			has_ruler_flag = foresight_spell_11
		}
		random_list = {
			85 = {
				add_ruler_modifier = {
					name = magic_realm_divination_foresight
					duration = 365
				}
			}
			15 = {
				add_ruler_modifier = {
					name = magic_realm_divination_foresight_madness
					duration = -1
				}
				change_adm = -6
				change_dip = -6
				change_mil = -6
			}
		}
	}
	if = {
		limit = {
			has_ruler_flag = foresight_spell_12
		}
		random_list = {
			80 = {
				add_ruler_modifier = {
					name = magic_realm_divination_foresight
					duration = 365
				}
			}
			20 = {
				add_ruler_modifier = {
					name = magic_realm_divination_foresight_madness
					duration = -1
				}
				change_adm = -6
				change_dip = -6
				change_mil = -6
			}
		}
	}
	if = {
		limit = {
			has_ruler_flag = foresight_spell_13
		}
		random_list = {
			75 = {
				add_ruler_modifier = {
					name = magic_realm_divination_foresight
					duration = 365
				}
			}
			25 = {
				add_ruler_modifier = {
					name = magic_realm_divination_foresight_madness
					duration = -1
				}
				change_adm = -6
				change_dip = -6
				change_mil = -6
			}
		}
	}
	if = {
		limit = {
			has_ruler_flag = foresight_spell_14
		}
		random_list = {
			70 = {
				add_ruler_modifier = {
					name = magic_realm_divination_foresight
					duration = 365
				}
			}
			30 = {
				add_ruler_modifier = {
					name = magic_realm_divination_foresight_madness
					duration = -1
				}
				change_adm = -6
				change_dip = -6
				change_mil = -6
			}
		}
	}
	if = {
		limit = {
			has_ruler_flag = foresight_spell_15
		}
		random_list = {
			65 = {
				add_ruler_modifier = {
					name = magic_realm_divination_foresight
					duration = 365
				}
			}
			35 = {
				add_ruler_modifier = {
					name = magic_realm_divination_foresight_madness
					duration = -1
				}
				change_adm = -6
				change_dip = -6
				change_mil = -6
			}
		}
	}
	if = {
		limit = {
			has_ruler_flag = foresight_spell_16
		}
		random_list = {
			60 = {
				add_ruler_modifier = {
					name = magic_realm_divination_foresight
					duration = 365
				}
			}
			40 = {
				add_ruler_modifier = {
					name = magic_realm_divination_foresight_madness
					duration = -1
				}
				change_adm = -6
				change_dip = -6
				change_mil = -6
			}
		}
	}
	if = {
		limit = {
			has_ruler_flag = foresight_spell_17
		}
		random_list = {
			55 = {
				add_ruler_modifier = {
					name = magic_realm_divination_foresight
					duration = 365
				}
			}
			45 = {
				add_ruler_modifier = {
					name = magic_realm_divination_foresight_madness
					duration = -1
				}
				change_adm = -6
				change_dip = -6
				change_mil = -6
			}
		}
	}
	if = {
		limit = {
			has_ruler_flag = foresight_spell_18
		}
		random_list = {
			50 = {
				add_ruler_modifier = {
					name = magic_realm_divination_foresight
					duration = 365
				}
			}
			50 = {
				add_ruler_modifier = {
					name = magic_realm_divination_foresight_madness
					duration = -1
				}
				change_adm = -6
				change_dip = -6
				change_mil = -6
			}
		}
	}
	if = {
		limit = {
			has_ruler_flag = foresight_spell_19
		}
		random_list = {
			40 = {
				add_ruler_modifier = {
					name = magic_realm_divination_foresight
					duration = 365
				}
			}
			60 = {
				add_ruler_modifier = {
					name = magic_realm_divination_foresight_madness
					duration = -1
				}
				change_adm = -6
				change_dip = -6
				change_mil = -6
			}
		}
	}
	if = {
		limit = {
			has_ruler_flag = foresight_spell_20
		}
		random_list = {
			20 = {
				add_ruler_modifier = {
					name = magic_realm_divination_foresight
					duration = 365
				}
			}
			80 = {
				add_ruler_modifier = {
					name = magic_realm_divination_foresight_madness
					duration = -1
				}
				change_adm = -6
				change_dip = -6
				change_mil = -6
			}
		}
	}
}

magic_study_clear_study_effects = {
	clr_ruler_flag = ruler_studying_abjuration
	clr_ruler_flag = ruler_studying_conjuration
	clr_ruler_flag = ruler_studying_divination
	clr_ruler_flag = ruler_studying_enchantment
	clr_ruler_flag = ruler_studying_evocation
	clr_ruler_flag = ruler_studying_illusion
	clr_ruler_flag = ruler_studying_necromancy
	clr_ruler_flag = ruler_studying_transmutation
	
	clr_ruler_flag = ruler_studying_help_from_mages_estate
	clr_ruler_flag = ruler_studying_help_from_advisor
	clr_ruler_flag = ruler_studying_library_archives
	clr_ruler_flag = ruler_studying_ancient_tome_found
	clr_ruler_flag = ruler_studying_magic_relic
	clr_ruler_flag = ruler_studying_magic_precursor_knowledge
	clr_ruler_flag = ruler_studying_magisterial_support
	clr_ruler_flag = ruler_studying_mana_1
	clr_ruler_flag = ruler_studying_mana_2
	clr_ruler_flag = ruler_studying_mana_3
	clr_ruler_flag = ruler_studying_gold_1
	clr_ruler_flag = ruler_studying_gold_2
	clr_ruler_flag = ruler_studying_gold_3
	clr_ruler_flag = ruler_studying_unregulated_research
	clr_ruler_flag = ruler_studying_unsafe_experiments
	clr_ruler_flag = ruler_studying_live_experiments
	clr_ruler_flag = ruler_studying_forbidden_knowledge
	clr_ruler_flag = ruler_studying_appealed_to_darker_powers
	
}

magic_study_level_up_abjuration = {
	if = {
		limit = { 
			has_ruler_flag = abjuration_1
			NOT = { has_ruler_flag = abjuration_2 }
		}
		set_ruler_flag = abjuration_2
	}
	else_if = {
		limit = { 
			has_ruler_flag = abjuration_2
			NOT = { has_ruler_flag = abjuration_3 }
		}
		set_ruler_flag = abjuration_3
	}
	else = {
		set_ruler_flag = abjuration_1
	}
}

magic_study_level_up_conjuration = {
	if = {
		limit = { 
			has_ruler_flag = conjuration_1
			NOT = { has_ruler_flag = conjuration_2 }
		}
		set_ruler_flag = conjuration_2
	}
	else_if = {
		limit = { 
			has_ruler_flag = conjuration_2
			NOT = { has_ruler_flag = conjuration_3 }
		}
		set_ruler_flag = conjuration_3
	}
	else = {
		set_ruler_flag = conjuration_1
	}
}

magic_study_level_up_divination = {
	if = {
		limit = { 
			has_ruler_flag = divination_1
			NOT = { has_ruler_flag = divination_2 }
		}
		set_ruler_flag = divination_2
	}
	else_if = {
		limit = { 
			has_ruler_flag = divination_2
			NOT = { has_ruler_flag = divination_3 }
		}
		set_ruler_flag = divination_3
	}
	else = {
		set_ruler_flag = divination_1
	}
}

magic_study_level_up_enchantment = {
	if = {
		limit = { 
			has_ruler_flag = enchantment_1
			NOT = { has_ruler_flag = enchantment_2 }
		}
		set_ruler_flag = enchantment_2
	}
	else_if = {
		limit = { 
			has_ruler_flag = enchantment_2
			NOT = { has_ruler_flag = enchantment_3 }
		}
		set_ruler_flag = enchantment_3
	}
	else = {
		set_ruler_flag = enchantment_1
	}
}

magic_study_level_up_evocation = {
	if = {
		limit = { 
			has_ruler_flag = evocation_1
			NOT = { has_ruler_flag = evocation_2 }
		}
		set_ruler_flag = evocation_2
	}
	else_if = {
		limit = { 
			has_ruler_flag = evocation_2
			NOT = { has_ruler_flag = evocation_3 }
		}
		set_ruler_flag = evocation_3
	}
	else = {
		set_ruler_flag = evocation_1
	}
}

magic_study_level_up_illusion = {
	if = {
		limit = { 
			has_ruler_flag = illusion_1
			NOT = { has_ruler_flag = illusion_2 }
		}
		set_ruler_flag = illusion_2
	}
	else_if = {
		limit = { 
			has_ruler_flag = illusion_2
			NOT = { has_ruler_flag = illusion_3 }
		}
		set_ruler_flag = illusion_3
	}
	else = {
		set_ruler_flag = illusion_1
	}
}

magic_study_level_up_necromancy = {
	if = {
		limit = { 
			has_ruler_flag = necromancy_1
			NOT = { has_ruler_flag = necromancy_2 }
		}
		set_ruler_flag = necromancy_2
	}
	else_if = {
		limit = { 
			has_ruler_flag = necromancy_2
			NOT = { has_ruler_flag = necromancy_3 }
		}
		set_ruler_flag = necromancy_3
	}
	else = {
		set_ruler_flag = necromancy_1
	}
}

magic_study_level_up_transmutation = {
	if = {
		limit = { 
			has_ruler_flag = transmutation_1
			NOT = { has_ruler_flag = transmutation_2 }
		}
		set_ruler_flag = transmutation_2
	}
	else_if = {
		limit = { 
			has_ruler_flag = transmutation_2
			NOT = { has_ruler_flag = transmutation_3 }
		}
		set_ruler_flag = transmutation_3
	}
	else = {
		set_ruler_flag = transmutation_1
	}
}

magic_study_level_up_mana = {
	if = {
		limit = { 
			has_ruler_flag = ruler_studying_mana_1
			NOT = { has_ruler_flag = ruler_studying_mana_2 }
		}
		set_ruler_flag = ruler_studying_mana_2
	}
	else_if = {
		limit = { 
			has_ruler_flag = ruler_studying_mana_2
			NOT = { has_ruler_flag = ruler_studying_mana_3 }
		}
		set_ruler_flag = ruler_studying_mana_3
	}
	else = {
		set_ruler_flag = ruler_studying_mana_1
	}
}

magic_study_level_up_gold = {
	if = {
		limit = { 
			has_ruler_flag = ruler_studying_gold_1
			NOT = { has_ruler_flag = ruler_studying_gold_2 }
		}
		set_ruler_flag = ruler_studying_gold_2
	}
	else_if = {
		limit = { 
			has_ruler_flag = ruler_studying_gold_2
			NOT = { has_ruler_flag = ruler_studying_gold_3 }
		}
		set_ruler_flag = ruler_studying_gold_3
	}
	else = {
		set_ruler_flag = ruler_studying_gold_1
	}
}

remove_siege_spells_from_province = {
	remove_province_modifier = siege_magic_elemental_besieger
	remove_province_modifier = siege_magic_giant_besieger
	remove_province_modifier = siege_magic_dragon_besieger
}

magic_casted_spell = {
#Eventually this would be spending spell slots, but for its a spell-a-month limit
	hidden_effect = {
		ROOT = {
			add_ruler_modifier = { 
				name = ruler_recently_casted_spell
				duration = 28 #a month
				desc = ruler_recently_casted_spell_desc
				#hidden = yes
			}
		}
	}
	if = {
		limit = { has_ruler_flag = magic_menu_opened }
			clr_ruler_flag = magic_menu_opened 
	}
}

open_single_menu = {
	set_ruler_flag = magic_menu_opened
}

close_single_menu = {
		if = {
			limit = { has_ruler_flag = magic_menu_opened }
			clr_ruler_flag = magic_menu_opened 
		}
}

clear_siege_magic_effects = {
	#remove_province_modifier = 
}

remove_government_name_changers = {
	clr_country_flag = is_a_county
	clr_country_flag = knightly_order_adventurer
}

clear_mage_organization_effect = {
	clr_country_flag = mage_organization_decentralized_flag
	clr_country_flag = mage_organization_centralized_flag
	clr_country_flag = mage_organization_magisterium_flag

	remove_country_modifier = mage_organization_decentralized
	remove_country_modifier = mage_organization_centralized
	remove_country_modifier = mage_organization_magisterium
}

count_provinces_with_farm_goods_effect = {	#it isnt an actual count its used for the Plant Growth spell, its in 2's til 50 then 10's til 100, 25's til 500
	set_variable={
		which=$which$ value=0
	}
	
	if = {
		limit = {
			num_of_owned_provinces_with = {
				value = 1
				province_with_farm_goods = yes
			}
		}
		change_variable = {
			which = $which$
			value = 1
		}
	}
	
	if = {
		limit = {
			num_of_owned_provinces_with = {
				value = 2
				province_with_farm_goods = yes
			}
		}
		change_variable = {
			which = $which$
			value = 1
		}
	}
	
	if = {
		limit = {
			num_of_owned_provinces_with = {
				value = 4
				province_with_farm_goods = yes
			}
		}
		change_variable = {
			which = $which$
			value = 1
		}
	}
	
	if = {
		limit = {
			num_of_owned_provinces_with = {
				value = 6
				province_with_farm_goods = yes
			}
		}
		change_variable = {
			which = $which$
			value = 1
		}	
	}
	
	if = {
		limit = {
			num_of_owned_provinces_with = {
				value = 8
				province_with_farm_goods = yes
			}
		}
		change_variable = {
			which = $which$
			value = 1
		}
	}
	
	if = {
		limit = {
			num_of_owned_provinces_with = {
				value = 10
				province_with_farm_goods = yes
			}
		}
		change_variable = {
			which = $which$
			value = 1
		}
	}
	
	if = {
		limit = {
			num_of_owned_provinces_with = {
				value = 12
				province_with_farm_goods = yes
			}
		}
		change_variable = {
			which = $which$
			value = 1
		}
	}
	
	if = {
		limit = {
			num_of_owned_provinces_with = {
				value = 14
				province_with_farm_goods = yes
			}
		}
		change_variable = {
			which = $which$
			value = 1
		}
	}
	
	if = {
		limit = {
			num_of_owned_provinces_with = {
				value = 16
				province_with_farm_goods = yes
			}
		}
		change_variable = {
			which = $which$
			value = 1
		}
	}
	
	if = {
		limit = {
			num_of_owned_provinces_with = {
				value = 18
				province_with_farm_goods = yes
			}
		}
		change_variable = {
			which = $which$
			value = 1
		}
	}
	
	if = {
		limit = {
			num_of_owned_provinces_with = {
				value = 20
				province_with_farm_goods = yes
			}
		}
		change_variable = {
			which = $which$
			value = 1
		}
	}
	
	if = {
		limit = {
			num_of_owned_provinces_with = {
				value = 22
				province_with_farm_goods = yes
			}
		}
		change_variable = {
			which = $which$
			value = 1
		}
	}
	
	if = {
		limit = {
			num_of_owned_provinces_with = {
				value = 24
				province_with_farm_goods = yes
			}
		}
		change_variable = {
			which = $which$
			value = 1
		}
	}
	
	if = {
		limit = {
			num_of_owned_provinces_with = {
				value = 26
				province_with_farm_goods = yes
			}
		}
		change_variable = {
			which = $which$
			value = 1
		}
	}
	
	if = {
		limit = {
			num_of_owned_provinces_with = {
				value = 28
				province_with_farm_goods = yes
			}
		}
		change_variable = {
			which = $which$
			value = 1
		}
	}
	
	if = {
		limit = {
			num_of_owned_provinces_with = {
				value = 30
				province_with_farm_goods = yes
			}
		}
		change_variable = {
			which = $which$
			value = 1
		}
	}
	
	if = {
		limit = {
			num_of_owned_provinces_with = {
				value = 32
				province_with_farm_goods = yes
			}
		}
		change_variable = {
			which = $which$
			value = 1
		}
	}
	
	if = {
		limit = {
			num_of_owned_provinces_with = {
				value = 34
				province_with_farm_goods = yes
			}
		}
		change_variable = {
			which = $which$
			value = 1
		}
	}
	
	if = {
		limit = {
			num_of_owned_provinces_with = {
				value = 36
				province_with_farm_goods = yes
			}
		}
		change_variable = {
			which = $which$
			value = 1
		}
	}
	
	if = {
		limit = {
			num_of_owned_provinces_with = {
				value = 38
				province_with_farm_goods = yes
			}
		}
		change_variable = {
			which = $which$
			value = 1
		}
	}
	
	if = {
		limit = {
			num_of_owned_provinces_with = {
				value = 40
				province_with_farm_goods = yes
			}
		}
		change_variable = {
			which = $which$
			value = 1
		}
	}
	
	if = {
		limit = {
			num_of_owned_provinces_with = {
				value = 42
				province_with_farm_goods = yes
			}
		}
		change_variable = {
			which = $which$
			value = 1
		}
	}
	
	if = {
		limit = {
			num_of_owned_provinces_with = {
				value = 44
				province_with_farm_goods = yes
			}
		}
		change_variable = {
			which = $which$
			value = 1
		}
	}
	
	if = {
		limit = {
			num_of_owned_provinces_with = {
				value = 46
				province_with_farm_goods = yes
			}
		}
		change_variable = {
			which = $which$
			value = 1
		}
	}
	
	if = {
		limit = {
			num_of_owned_provinces_with = {
				value = 48
				province_with_farm_goods = yes
			}
		}
		change_variable = {
			which = $which$
			value = 1
		}
	}
	
	if = {
		limit = {
			num_of_owned_provinces_with = {
				value = 50
				province_with_farm_goods = yes
			}
		}
		change_variable = {
			which = $which$
			value = 1
		}
	}
	
	if = {
		limit = {
			num_of_owned_provinces_with = {
				value = 60
				province_with_farm_goods = yes
			}
		}
		change_variable = {
			which = $which$
			value = 10
		}
	}
	
	if = {
		limit = {
			num_of_owned_provinces_with = {
				value = 70
				province_with_farm_goods = yes
			}
		}
		change_variable = {
			which = $which$
			value = 10
		}
	}
	
	if = {
		limit = {
			num_of_owned_provinces_with = {
				value = 80
				province_with_farm_goods = yes
			}
		}
		change_variable = {
			which = $which$
			value = 10
		}
	}
	
	if = {
		limit = {
			num_of_owned_provinces_with = {
				value = 90
				province_with_farm_goods = yes
			}
		}
		change_variable = {
			which = $which$
			value = 10
		}
	}
	
	if = {
		limit = {
			num_of_owned_provinces_with = {
				value = 100
				province_with_farm_goods = yes
			}
		}
		change_variable = {
			which = $which$
			value = 10
		}
	}
	
	if = {
		limit = {
			num_of_owned_provinces_with = {
				value = 110
				province_with_farm_goods = yes
			}
		}
		change_variable = {
			which = $which$
			value = 10
		}
	}
	
	if = {
		limit = {
			num_of_owned_provinces_with = {
				value = 120
				province_with_farm_goods = yes
			}
		}
		change_variable = {
			which = $which$
			value = 10
		}
	}
	
	if = {
		limit = {
			num_of_owned_provinces_with = {
				value = 140
				province_with_farm_goods = yes
			}
		}
		change_variable = {
			which = $which$
			value = 10
		}
	}
	
	if = {
		limit = {
			num_of_owned_provinces_with = {
				value = 160
				province_with_farm_goods = yes
			}
		}
		change_variable = {
			which = $which$
			value = 10
		}
	}
	
	if = {
		limit = {
			num_of_owned_provinces_with = {
				value = 180
				province_with_farm_goods = yes
			}
		}
		change_variable = {
			which = $which$
			value = 10
		}
	}
	
	if = {
		limit = {
			num_of_owned_provinces_with = {
				value = 200
				province_with_farm_goods = yes
			}
		}
		change_variable = {
			which = $which$
			value = 10
		}
	}
	
	if = {
		limit = {
			num_of_owned_provinces_with = {
				value = 225
				province_with_farm_goods = yes
			}
		}
		change_variable = {
			which = $which$
			value = 25
		}
	}
	
	if = {
		limit = {
			num_of_owned_provinces_with = {
				value = 250
				province_with_farm_goods = yes
			}
		}
		change_variable = {
			which = $which$
			value = 25
		}
	}
	
	if = {
		limit = {
			num_of_owned_provinces_with = {
				value = 275
				province_with_farm_goods = yes
			}
		}
		change_variable = {
			which = $which$
			value = 25
		}
	}
	
	if = {
		limit = {
			num_of_owned_provinces_with = {
				value = 300
				province_with_farm_goods = yes
			}
		}
		change_variable = {
			which = $which$
			value = 25
		}
	}
	
	if = {
		limit = {
			num_of_owned_provinces_with = {
				value = 325
				province_with_farm_goods = yes
			}
		}
		change_variable = {
			which = $which$
			value = 25
		}
	}
	
	if = {
		limit = {
			num_of_owned_provinces_with = {
				value = 350
				province_with_farm_goods = yes
			}
		}
		change_variable = {
			which = $which$
			value = 25
		}
	}
	
	if = {
		limit = {
			num_of_owned_provinces_with = {
				value = 375
				province_with_farm_goods = yes
			}
		}
		change_variable = {
			which = $which$
			value = 25
		}
	}
	
	if = {
		limit = {
			num_of_owned_provinces_with = {
				value = 400
				province_with_farm_goods = yes
			}
		}
		change_variable = {
			which = $which$
			value = 25
		}
	}
	
	if = {
		limit = {
			num_of_owned_provinces_with = {
				value = 425
				province_with_farm_goods = yes
			}
		}
		change_variable = {
			which = $which$
			value = 25
		}
	}
	
	if = {
		limit = {
			num_of_owned_provinces_with = {
				value = 450
				province_with_farm_goods = yes
			}
		}
		change_variable = {
			which = $which$
			value = 25
		}
	}
	
	if = {
		limit = {
			num_of_owned_provinces_with = {
				value = 475
				province_with_farm_goods = yes
			}
		}
		change_variable = {
			which = $which$
			value = 25
		}
	}
	
	if = {
		limit = {
			num_of_owned_provinces_with = {
				value = 500
				province_with_farm_goods = yes
			}
		}
		change_variable = {
			which = $which$
			value = 25
		}
	}

}


count_provinces_owned_by_neighbours_effect = {
	set_variable={
		which=$which$ value=0
	}
	
	if = {
		limit = {
			any_neighbor_country = {
				num_of_owned_provinces_with = {
					value = 1
				}
			}
		}
		change_variable = {
			which = $which$
			value = 1
		}
	}
	
	if = {
		limit = {
			any_neighbor_country = {
				num_of_owned_provinces_with = {
					value = 2
				}
			}
		}
		change_variable = {
			which = $which$
			value = 1
		}
	}
	
	if = {
		limit = {
			any_neighbor_country = {
				num_of_owned_provinces_with = {
					value = 4
				}
			}
		}
		change_variable = {
			which = $which$
			value = 1
		}
	}
	
	if = {
		limit = {
			any_neighbor_country = {
				num_of_owned_provinces_with = {
					value = 6
				}
			}
		}
		change_variable = {
			which = $which$
			value = 1
		}	
	}
	
	if = {
		limit = {
			any_neighbor_country = {
				num_of_owned_provinces_with = {
					value = 8
				}
			}
		}
		change_variable = {
			which = $which$
			value = 1
		}
	}
	
	if = {
		limit = {
			any_neighbor_country = {
				num_of_owned_provinces_with = {
					value = 10
				}
			}
		}
		change_variable = {
			which = $which$
			value = 1
		}
	}
	
	if = {
		limit = {
			any_neighbor_country = {
				num_of_owned_provinces_with = {
					value = 12
				}
			}
		}
		change_variable = {
			which = $which$
			value = 1
		}
	}
	
	if = {
		limit = {
			any_neighbor_country = {
				num_of_owned_provinces_with = {
					value = 14
				}
			}
		}
		change_variable = {
			which = $which$
			value = 1
		}
	}
	
	if = {
		limit = {
			any_neighbor_country = {
				num_of_owned_provinces_with = {
					value = 16
				}
			}
		}
		change_variable = {
			which = $which$
			value = 1
		}
	}
	
	if = {
		limit = {
			any_neighbor_country = {
				num_of_owned_provinces_with = {
					value = 18
				}
			}
		}
		change_variable = {
			which = $which$
			value = 1
		}
	}
	
	if = {
		limit = {
			any_neighbor_country = {
				num_of_owned_provinces_with = {
					value = 20
				}
			}
		}
		change_variable = {
			which = $which$
			value = 1
		}
	}
	
	if = {
		limit = {
			any_neighbor_country = {
				num_of_owned_provinces_with = {
					value = 22
				}
			}
		}
		change_variable = {
			which = $which$
			value = 1
		}
	}
	
	if = {
		limit = {
			any_neighbor_country = {
				num_of_owned_provinces_with = {
					value = 24
				}
			}
		}
		change_variable = {
			which = $which$
			value = 1
		}
	}
	
	if = {
		limit = {
			any_neighbor_country = {
				num_of_owned_provinces_with = {
					value = 26
				}
			}
		}
		change_variable = {
			which = $which$
			value = 1
		}
	}
	
	if = {
		limit = {
			any_neighbor_country = {
				num_of_owned_provinces_with = {
					value = 28
				}
			}
		}
		change_variable = {
			which = $which$
			value = 1
		}
	}
	
	if = {
		limit = {
			any_neighbor_country = {
				num_of_owned_provinces_with = {
					value = 30
				}
			}
		}
		change_variable = {
			which = $which$
			value = 1
		}
	}
	
	if = {
		limit = {
			any_neighbor_country = {
				num_of_owned_provinces_with = {
					value = 32
				}
			}
		}
		change_variable = {
			which = $which$
			value = 1
		}
	}
	
	if = {
		limit = {
			any_neighbor_country = {
				num_of_owned_provinces_with = {
					value = 34
				}
			}
		}
		change_variable = {
			which = $which$
			value = 1
		}
	}
	
	if = {
		limit = {
			any_neighbor_country = {
				num_of_owned_provinces_with = {
					value = 36
				}
			}
		}
		change_variable = {
			which = $which$
			value = 1
		}
	}
	
	if = {
		limit = {
			any_neighbor_country = {
				num_of_owned_provinces_with = {
					value = 38
					
				}
			}
		}
		change_variable = {
			which = $which$
			value = 1
		}
	}
	
	if = {
		limit = {
			any_neighbor_country = {
				num_of_owned_provinces_with = {
					value = 40
					
				}
			}
		}
		change_variable = {
			which = $which$
			value = 1
		}
	}
	
	if = {
		limit = {
			any_neighbor_country = {
				num_of_owned_provinces_with = {
					value = 42
					
				}
			}
		}
		change_variable = {
			which = $which$
			value = 1
		}
	}
	
	if = {
		limit = {
			any_neighbor_country = {
				num_of_owned_provinces_with = {
					value = 44
					
				}
			}
		}
		change_variable = {
			which = $which$
			value = 1
		}
	}
	
	if = {
		limit = {
			any_neighbor_country = {
				num_of_owned_provinces_with = {
					value = 46
					
				}
			}
		}
		change_variable = {
			which = $which$
			value = 1
		}
	}
	
	if = {
		limit = {
			any_neighbor_country = {
				num_of_owned_provinces_with = {
					value = 48
					
				}
			}
		}
		change_variable = {
			which = $which$
			value = 1
		}
	}
	
	if = {
		limit = {
			any_neighbor_country = {
				num_of_owned_provinces_with = {
					value = 50
					
				}
			}
		}
		change_variable = {
			which = $which$
			value = 1
		}
	}
	
	if = {
		limit = {
			any_neighbor_country = {
				num_of_owned_provinces_with = {
					value = 60
					
				}
			}
		}
		change_variable = {
			which = $which$
			value = 10
		}
	}
	
	if = {
		limit = {
			any_neighbor_country = {
				num_of_owned_provinces_with = {
					value = 70
					
				}
			}
		}
		change_variable = {
			which = $which$
			value = 10
		}
	}
	
	if = {
		limit = {
			any_neighbor_country = {
				num_of_owned_provinces_with = {
					value = 80
					
				}
			}
		}
		change_variable = {
			which = $which$
			value = 10
		}
	}
	
	if = {
		limit = {
			any_neighbor_country = {
				num_of_owned_provinces_with = {
					value = 90
					
				}
			}
		}
		change_variable = {
			which = $which$
			value = 10
		}
	}
	
	if = {
		limit = {
			any_neighbor_country = {
				num_of_owned_provinces_with = {
					value = 100
				}
			}
		}
		change_variable = {
			which = $which$
			value = 10
		}
	}
	
	if = {
		limit = {
			any_neighbor_country = {
				num_of_owned_provinces_with = {
					value = 110
				}
			}
		}
		change_variable = {
			which = $which$
			value = 10
		}
	}
	
	if = {
		limit = {
			any_neighbor_country = {
				num_of_owned_provinces_with = {
					value = 120
				}
			}
		}
		change_variable = {
			which = $which$
			value = 10
		}
	}
	
	if = {
		limit = {
			any_neighbor_country = {
				num_of_owned_provinces_with = {
					value = 140
				}
			}
		}
		change_variable = {
			which = $which$
			value = 10
		}
	}
	
	if = {
		limit = {
			any_neighbor_country = {
				num_of_owned_provinces_with = {
					value = 160
				}
			}
		}
		change_variable = {
			which = $which$
			value = 10
		}
	}
	
	if = {
		limit = {
			any_neighbor_country = {
				num_of_owned_provinces_with = {
					value = 180
				}
			}
		}
		change_variable = {
			which = $which$
			value = 10
		}
	}
	
	if = {
		limit = {
			any_neighbor_country = {
				num_of_owned_provinces_with = {
					value = 200
				}
			}
		}
		change_variable = {
			which = $which$
			value = 10
		}
	}
	
	if = {
		limit = {
			any_neighbor_country = {
				num_of_owned_provinces_with = {
					value = 225
				}
			}
		}
		change_variable = {
			which = $which$
			value = 25
		}
	}
	
	if = {
		limit = {
			any_neighbor_country = {
				num_of_owned_provinces_with = {
					value = 250
				}
			}
		}
		change_variable = {
			which = $which$
			value = 25
		}
	}
	
	if = {
		limit = {
			any_neighbor_country = {
				num_of_owned_provinces_with = {
					value = 275
				}
			}
		}
		change_variable = {
			which = $which$
			value = 25
		}
	}
	
	if = {
		limit = {
			any_neighbor_country = {
				num_of_owned_provinces_with = {
					value = 300
				}
			}
		}
		change_variable = {
			which = $which$
			value = 25
		}
	}
	
	if = {
		limit = {
			any_neighbor_country = {
				num_of_owned_provinces_with = {
					value = 325
				}
			}
		}
		change_variable = {
			which = $which$
			value = 25
		}
	}
	
	if = {
		limit = {
			any_neighbor_country = {
				num_of_owned_provinces_with = {
					value = 350
				}
			}
		}
		change_variable = {
			which = $which$
			value = 25
		}
	}
	
	if = {
		limit = {
			any_neighbor_country = {
				num_of_owned_provinces_with = {
					value = 375
				}
			}
		}
		change_variable = {
			which = $which$
			value = 25
		}
	}
	
	if = {
		limit = {
			any_neighbor_country = {
				num_of_owned_provinces_with = {
					value = 400
				}
			}
		}
		change_variable = {
			which = $which$
			value = 25
		}
	}
	
	if = {
		limit = {
			any_neighbor_country = {
				num_of_owned_provinces_with = {
					value = 425
				}
			}
		}
		change_variable = {
			which = $which$
			value = 25
		}
	}
	
	if = {
		limit = {
			any_neighbor_country = {
				num_of_owned_provinces_with = {
					value = 450
				}
			}
		}
		change_variable = {
			which = $which$
			value = 25
		}
	}
	
	if = {
		limit = {
			any_neighbor_country = {
				num_of_owned_provinces_with = {
					value = 475
				}
			}
		}
		change_variable = {
			which = $which$
			value = 25
		}
	}
	
	if = {
		limit = {
			any_neighbor_country = {
				num_of_owned_provinces_with = {
					value = 500
				}
			}
		}
		change_variable = {
			which = $which$
			value = 25
		}
	}
}

count_provinces_owned_by_war_enemies_effect = {	#it isnt an actual count its used for the Plant Growth spell, its in 2's til 50 then 10's til 100, 25's til 500
	set_variable={
		which=$which$ value=0
	}
	
	if = {
		limit = {
			any_country = {
				war_with = ROOT
				num_of_owned_provinces_with = {
					value = 1
				}
			}
		}
		change_variable = {
			which = $which$
			value = 1
		}
	}
	
	if = {
		limit = {
			any_country = {
				war_with = ROOT
				num_of_owned_provinces_with = {
					value = 2
				}
			}
		}
		change_variable = {
			which = $which$
			value = 1
		}
	}
	
	if = {
		limit = {
			any_country = {
				war_with = ROOT
				num_of_owned_provinces_with = {
					value = 4
				}
			}
		}
		change_variable = {
			which = $which$
			value = 1
		}
	}
	
	if = {
		limit = {
			any_country = {
				war_with = ROOT
				num_of_owned_provinces_with = {
					value = 6
				}
			}
		}
		change_variable = {
			which = $which$
			value = 1
		}	
	}
	
	if = {
		limit = {
			any_country = {
				war_with = ROOT
				num_of_owned_provinces_with = {
					value = 8
				}
			}
		}
		change_variable = {
			which = $which$
			value = 1
		}
	}
	
	if = {
		limit = {
			any_country = {
				war_with = ROOT
				num_of_owned_provinces_with = {
					value = 10
				}
			}
		}
		change_variable = {
			which = $which$
			value = 1
		}
	}
	
	if = {
		limit = {
			any_country = {
				war_with = ROOT
				num_of_owned_provinces_with = {
					value = 12
				}
			}
		}
		change_variable = {
			which = $which$
			value = 1
		}
	}
	
	if = {
		limit = {
			any_country = {
				war_with = ROOT
				num_of_owned_provinces_with = {
					value = 14
				}
			}
		}
		change_variable = {
			which = $which$
			value = 1
		}
	}
	
	if = {
		limit = {
			any_country = {
				war_with = ROOT
				num_of_owned_provinces_with = {
					value = 16
				}
			}
		}
		change_variable = {
			which = $which$
			value = 1
		}
	}
	
	if = {
		limit = {
			any_country = {
				war_with = ROOT
				num_of_owned_provinces_with = {
					value = 18
				}
			}
		}
		change_variable = {
			which = $which$
			value = 1
		}
	}
	
	if = {
		limit = {
			any_country = {
				war_with = ROOT
				num_of_owned_provinces_with = {
					value = 20
				}
			}
		}
		change_variable = {
			which = $which$
			value = 1
		}
	}
	
	if = {
		limit = {
			any_country = {
				war_with = ROOT
				num_of_owned_provinces_with = {
					value = 22
				}
			}
		}
		change_variable = {
			which = $which$
			value = 1
		}
	}
	
	if = {
		limit = {
			any_country = {
				war_with = ROOT
				num_of_owned_provinces_with = {
					value = 24
				}
			}
		}
		change_variable = {
			which = $which$
			value = 1
		}
	}
	
	if = {
		limit = {
			any_country = {
				war_with = ROOT
				num_of_owned_provinces_with = {
					value = 26
				}
			}
		}
		change_variable = {
			which = $which$
			value = 1
		}
	}
	
	if = {
		limit = {
			any_country = {
				war_with = ROOT
				num_of_owned_provinces_with = {
					value = 28
				}
			}
		}
		change_variable = {
			which = $which$
			value = 1
		}
	}
	
	if = {
		limit = {
			any_country = {
				war_with = ROOT
				num_of_owned_provinces_with = {
					value = 30
				}
			}
		}
		change_variable = {
			which = $which$
			value = 1
		}
	}
	
	if = {
		limit = {
			any_country = {
				war_with = ROOT
				num_of_owned_provinces_with = {
					value = 32
				}
			}
		}
		change_variable = {
			which = $which$
			value = 1
		}
	}
	
	if = {
		limit = {
			any_country = {
				war_with = ROOT
				num_of_owned_provinces_with = {
					value = 34
				}
			}
		}
		change_variable = {
			which = $which$
			value = 1
		}
	}
	
	if = {
		limit = {
			any_country = {
				war_with = ROOT
				num_of_owned_provinces_with = {
					value = 36
				}
			}
		}
		change_variable = {
			which = $which$
			value = 1
		}
	}
	
	if = {
		limit = {
			any_country = {
				war_with = ROOT
				num_of_owned_provinces_with = {
					value = 38
					
				}
			}
		}
		change_variable = {
			which = $which$
			value = 1
		}
	}
	
	if = {
		limit = {
			any_country = {
				war_with = ROOT
				num_of_owned_provinces_with = {
					value = 40
					
				}
			}
		}
		change_variable = {
			which = $which$
			value = 1
		}
	}
	
	if = {
		limit = {
			any_country = {
				war_with = ROOT
				num_of_owned_provinces_with = {
					value = 42
					
				}
			}
		}
		change_variable = {
			which = $which$
			value = 1
		}
	}
	
	if = {
		limit = {
			any_country = {
				war_with = ROOT
				num_of_owned_provinces_with = {
					value = 44
					
				}
			}
		}
		change_variable = {
			which = $which$
			value = 1
		}
	}
	
	if = {
		limit = {
			any_country = {
				war_with = ROOT
				num_of_owned_provinces_with = {
					value = 46
					
				}
			}
		}
		change_variable = {
			which = $which$
			value = 1
		}
	}
	
	if = {
		limit = {
			any_country = {
				war_with = ROOT
				num_of_owned_provinces_with = {
					value = 48
					
				}
			}
		}
		change_variable = {
			which = $which$
			value = 1
		}
	}
	
	if = {
		limit = {
			any_country = {
				war_with = ROOT
				num_of_owned_provinces_with = {
					value = 50
					
				}
			}
		}
		change_variable = {
			which = $which$
			value = 1
		}
	}
	
	if = {
		limit = {
			any_country = {
				war_with = ROOT
				num_of_owned_provinces_with = {
					value = 60
					
				}
			}
		}
		change_variable = {
			which = $which$
			value = 10
		}
	}
	
	if = {
		limit = {
			any_country = {
				war_with = ROOT
				num_of_owned_provinces_with = {
					value = 70
					
				}
			}
		}
		change_variable = {
			which = $which$
			value = 10
		}
	}
	
	if = {
		limit = {
			any_country = {
				war_with = ROOT
				num_of_owned_provinces_with = {
					value = 80
					
				}
			}
		}
		change_variable = {
			which = $which$
			value = 10
		}
	}
	
	if = {
		limit = {
			any_country = {
				war_with = ROOT
				num_of_owned_provinces_with = {
					value = 90
					
				}
			}
		}
		change_variable = {
			which = $which$
			value = 10
		}
	}
	
	if = {
		limit = {
			any_country = {
				war_with = ROOT
				num_of_owned_provinces_with = {
					value = 100
				}
			}
		}
		change_variable = {
			which = $which$
			value = 10
		}
	}
	
	if = {
		limit = {
			any_country = {
				war_with = ROOT
				num_of_owned_provinces_with = {
					value = 110
				}
			}
		}
		change_variable = {
			which = $which$
			value = 10
		}
	}
	
	if = {
		limit = {
			any_country = {
				war_with = ROOT
				num_of_owned_provinces_with = {
					value = 120
				}
			}
		}
		change_variable = {
			which = $which$
			value = 10
		}
	}
	
	if = {
		limit = {
			any_country = {
				war_with = ROOT
				num_of_owned_provinces_with = {
					value = 140
				}
			}
		}
		change_variable = {
			which = $which$
			value = 10
		}
	}
	
	if = {
		limit = {
			any_country = {
				war_with = ROOT
				num_of_owned_provinces_with = {
					value = 160
				}
			}
		}
		change_variable = {
			which = $which$
			value = 10
		}
	}
	
	if = {
		limit = {
			any_country = {
				war_with = ROOT
				num_of_owned_provinces_with = {
					value = 180
				}
			}
		}
		change_variable = {
			which = $which$
			value = 10
		}
	}
	
	if = {
		limit = {
			any_country = {
				war_with = ROOT
				num_of_owned_provinces_with = {
					value = 200
				}
			}
		}
		change_variable = {
			which = $which$
			value = 10
		}
	}
	
	if = {
		limit = {
			any_country = {
				war_with = ROOT
				num_of_owned_provinces_with = {
					value = 225
				}
			}
		}
		change_variable = {
			which = $which$
			value = 25
		}
	}
	
	if = {
		limit = {
			any_country = {
				war_with = ROOT
				num_of_owned_provinces_with = {
					value = 250
				}
			}
		}
		change_variable = {
			which = $which$
			value = 25
		}
	}
	
	if = {
		limit = {
			any_country = {
				war_with = ROOT
				num_of_owned_provinces_with = {
					value = 275
				}
			}
		}
		change_variable = {
			which = $which$
			value = 25
		}
	}
	
	if = {
		limit = {
			any_country = {
				war_with = ROOT
				num_of_owned_provinces_with = {
					value = 300
				}
			}
		}
		change_variable = {
			which = $which$
			value = 25
		}
	}
	
	if = {
		limit = {
			any_country = {
				war_with = ROOT
				num_of_owned_provinces_with = {
					value = 325
				}
			}
		}
		change_variable = {
			which = $which$
			value = 25
		}
	}
	
	if = {
		limit = {
			any_country = {
				war_with = ROOT
				num_of_owned_provinces_with = {
					value = 350
				}
			}
		}
		change_variable = {
			which = $which$
			value = 25
		}
	}
	
	if = {
		limit = {
			any_country = {
				war_with = ROOT
				num_of_owned_provinces_with = {
					value = 375
				}
			}
		}
		change_variable = {
			which = $which$
			value = 25
		}
	}
	
	if = {
		limit = {
			any_country = {
				war_with = ROOT
				num_of_owned_provinces_with = {
					value = 400
				}
			}
		}
		change_variable = {
			which = $which$
			value = 25
		}
	}
	
	if = {
		limit = {
			any_country = {
				war_with = ROOT
				num_of_owned_provinces_with = {
					value = 425
				}
			}
		}
		change_variable = {
			which = $which$
			value = 25
		}
	}
	
	if = {
		limit = {
			any_country = {
				war_with = ROOT
				num_of_owned_provinces_with = {
					value = 450
				}
			}
		}
		change_variable = {
			which = $which$
			value = 25
		}
	}
	
	if = {
		limit = {
			any_country = {
				war_with = ROOT
				num_of_owned_provinces_with = {
					value = 475
				}
			}
		}
		change_variable = {
			which = $which$
			value = 25
		}
	}
	
	if = {
		limit = {
			any_country = {
				war_with = ROOT
				num_of_owned_provinces_with = {
					value = 500
				}
			}
		}
		change_variable = {
			which = $which$
			value = 25
		}
	}

}

count_provinces_owned_by_country_effect = {	
	set_variable={
		which=$which$ value=0
	}
	
	if = {
		limit = {
			num_of_owned_provinces_with = {
				value = 1
				#owner = ROOT
			}
		}
		change_variable = {
			which = $which$
			value = 1
		}
	}
	if = {
		limit = {
			num_of_owned_provinces_with = {
				value = 2
				#owner = ROOT
			}
		}
		change_variable = {
			which = $which$
			value = 1
		}
	}
	
	if = {
		limit = {
			num_of_owned_provinces_with = {
				value = 4
				#owner = ROOT
			}
		}
		change_variable = {
			which = $which$
			value = 1
		}
	}
	
	if = {
		limit = {
			num_of_owned_provinces_with = {
				value = 6
				#owner = ROOT
			}
		}
		change_variable = {
			which = $which$
			value = 1
		}	
	}
	
	if = {
		limit = {
			num_of_owned_provinces_with = {
				value = 8
				#owner = ROOT
			}
		}
		change_variable = {
			which = $which$
			value = 1
		}
	}
	
	if = {
		limit = {
			num_of_owned_provinces_with = {
				value = 10
				#owner = ROOT
			}
		}
		change_variable = {
			which = $which$
			value = 1
		}
	}
	
	if = {
		limit = {
			num_of_owned_provinces_with = {
				value = 12
				#owner = ROOT
			}
		}
		change_variable = {
			which = $which$
			value = 1
		}
	}
	
	if = {
		limit = {
			num_of_owned_provinces_with = {
				value = 14
				#owner = ROOT
			}
		}
		change_variable = {
			which = $which$
			value = 1
		}
	}
	
	if = {
		limit = {
			num_of_owned_provinces_with = {
				value = 16
				#owner = ROOT
			}
		}
		change_variable = {
			which = $which$
			value = 1
		}
	}
	
	if = {
		limit = {
			num_of_owned_provinces_with = {
				value = 18
				#owner = ROOT
			}
		}
		change_variable = {
			which = $which$
			value = 1
		}
	}
	
	if = {
		limit = {
			num_of_owned_provinces_with = {
				value = 20
				#owner = ROOT
			}
		}
		change_variable = {
			which = $which$
			value = 1
		}
	}
	
	if = {
		limit = {
			num_of_owned_provinces_with = {
				value = 22
				#owner = ROOT
			}
		}
		change_variable = {
			which = $which$
			value = 1
		}
	}
	
	if = {
		limit = {
			num_of_owned_provinces_with = {
				value = 24
				#owner = ROOT
			}
		}
		change_variable = {
			which = $which$
			value = 1
		}
	}
	
	if = {
		limit = {
			num_of_owned_provinces_with = {
				value = 26
				#owner = ROOT
			}
		}
		change_variable = {
			which = $which$
			value = 1
		}
	}
	
	if = {
		limit = {
			num_of_owned_provinces_with = {
				value = 28
				#owner = ROOT
			}
		}
		change_variable = {
			which = $which$
			value = 1
		}
	}
	
	if = {
		limit = {
			num_of_owned_provinces_with = {
				value = 30
				#owner = ROOT
			}
		}
		change_variable = {
			which = $which$
			value = 1
		}
	}
	
	if = {
		limit = {
			num_of_owned_provinces_with = {
				value = 32
				#owner = ROOT
			}
		}
		change_variable = {
			which = $which$
			value = 1
		}
	}
	
	if = {
		limit = {
			num_of_owned_provinces_with = {
				value = 34
				#owner = ROOT
			}
		}
		change_variable = {
			which = $which$
			value = 1
		}
	}
	
	if = {
		limit = {
			num_of_owned_provinces_with = {
				value = 36
				#owner = ROOT
			}
		}
		change_variable = {
			which = $which$
			value = 1
		}
	}
	
	if = {
		limit = {
			num_of_owned_provinces_with = {
				value = 38
				#owner = ROOT
			}
		}
		change_variable = {
			which = $which$
			value = 1
		}
	}
	
	if = {
		limit = {
			num_of_owned_provinces_with = {
				value = 40
				#owner = ROOT
			}
		}
		change_variable = {
			which = $which$
			value = 1
		}
	}
	
	if = {
		limit = {
			num_of_owned_provinces_with = {
				value = 42
				#owner = ROOT
			}
		}
		change_variable = {
			which = $which$
			value = 1
		}
	}
	
	if = {
		limit = {
			num_of_owned_provinces_with = {
				value = 44
				#owner = ROOT
			}
		}
		change_variable = {
			which = $which$
			value = 1
		}
	}
	
	if = {
		limit = {
			num_of_owned_provinces_with = {
				value = 46
				#owner = ROOT
			}
		}
		change_variable = {
			which = $which$
			value = 1
		}
	}
	
	if = {
		limit = {
			num_of_owned_provinces_with = {
				value = 48
				#owner = ROOT
			}
		}
		change_variable = {
			which = $which$
			value = 1
		}
	}
	
	if = {
		limit = {
			num_of_owned_provinces_with = {
				value = 50
				#owner = ROOT
			}
		}
		change_variable = {
			which = $which$
			value = 1
		}
	}
	
	if = {
		limit = {
			num_of_owned_provinces_with = {
				value = 60
				#owner = ROOT
			}
		}
		change_variable = {
			which = $which$
			value = 10
		}
	}
	
	if = {
		limit = {
			num_of_owned_provinces_with = {
				value = 70
				#owner = ROOT
			}
		}
		change_variable = {
			which = $which$
			value = 10
		}
	}
	
	if = {
		limit = {
			num_of_owned_provinces_with = {
				value = 80
				#owner = ROOT
			}
		}
		change_variable = {
			which = $which$
			value = 10
		}
	}
	
	if = {
		limit = {
			num_of_owned_provinces_with = {
				value = 90
				#owner = ROOT
			}
		}
		change_variable = {
			which = $which$
			value = 10
		}
	}
	
	if = {
		limit = {
			num_of_owned_provinces_with = {
				value = 100
				#owner = ROOT
			}
		}
		change_variable = {
			which = $which$
			value = 10
		}
	}
	
	if = {
		limit = {
			num_of_owned_provinces_with = {
				value = 110
				#owner = ROOT
			}
		}
		change_variable = {
			which = $which$
			value = 10
		}
	}
	
	if = {
		limit = {
			num_of_owned_provinces_with = {
				value = 120
				#owner = ROOT
			}
		}
		change_variable = {
			which = $which$
			value = 10
		}
	}
	
	if = {
		limit = {
			num_of_owned_provinces_with = {
				value = 140
				#owner = ROOT
			}
		}
		change_variable = {
			which = $which$
			value = 10
		}
	}
	
	if = {
		limit = {
			num_of_owned_provinces_with = {
				value = 160
				#owner = ROOT
			}
		}
		change_variable = {
			which = $which$
			value = 10
		}
	}
	
	if = {
		limit = {
			num_of_owned_provinces_with = {
				value = 180
				#owner = ROOT
			}
		}
		change_variable = {
			which = $which$
			value = 10
		}
	}
	
	if = {
		limit = {
			num_of_owned_provinces_with = {
				value = 200
				#owner = ROOT
			}
		}
		change_variable = {
			which = $which$
			value = 10
		}
	}
	
	if = {
		limit = {
			num_of_owned_provinces_with = {
				value = 225
				#owner = ROOT
			}
		}
		change_variable = {
			which = $which$
			value = 25
		}
	}
	
	if = {
		limit = {
			num_of_owned_provinces_with = {
				value = 250
				#owner = ROOT
			}
		}
		change_variable = {
			which = $which$
			value = 25
		}
	}
	
	if = {
		limit = {
			num_of_owned_provinces_with = {
				value = 275
				#owner = ROOT
			}
		}
		change_variable = {
			which = $which$
			value = 25
		}
	}
	
	if = {
		limit = {
			num_of_owned_provinces_with = {
				value = 300
				#owner = ROOT
			}
		}
		change_variable = {
			which = $which$
			value = 25
		}
	}
	
	if = {
		limit = {
			num_of_owned_provinces_with = {
				value = 325
				#owner = ROOT
			}
		}
		change_variable = {
			which = $which$
			value = 25
		}
	}
	
	if = {
		limit = {
			num_of_owned_provinces_with = {
				value = 350
				#owner = ROOT
			}
		}
		change_variable = {
			which = $which$
			value = 25
		}
	}
	
	if = {
		limit = {
			num_of_owned_provinces_with = {
				value = 375
				#owner = ROOT
			}
		}
		change_variable = {
			which = $which$
			value = 25
		}
	}
	
	if = {
		limit = {
			num_of_owned_provinces_with = {
				value = 400
				#owner = ROOT
			}
		}
		change_variable = {
			which = $which$
			value = 25
		}
	}
	
	if = {
		limit = {
			num_of_owned_provinces_with = {
				value = 425
				#owner = ROOT
			}
		}
		change_variable = {
			which = $which$
			value = 25
		}
	}
	
	if = {
		limit = {
			num_of_owned_provinces_with = {
				value = 450
				#owner = ROOT
			}
		}
		change_variable = {
			which = $which$
			value = 25
		}
	}
	
	if = {
		limit = {
			num_of_owned_provinces_with = {
				value = 475
				#owner = ROOT
			}
		}
		change_variable = {
			which = $which$
			value = 25
		}
	}
	
	if = {
		limit = {
			num_of_owned_provinces_with = {
				value = 500
				#owner = ROOT
			}
		}
		change_variable = {
			which = $which$
			value = 25
		}
	}

}

count_provinces_owned_by_rivals_effect = {	
	set_variable={
		which=$which$ value=0
	}
	
	if = {
		limit = {
			any_rival_country = {
				num_of_owned_provinces_with = {
					value = 1
					
				}
			}
		}
		change_variable = {
			which = $which$
			value = 1
		}
	}
	if = {
		limit = {
			any_rival_country = {
				num_of_owned_provinces_with = {
					value = 2
					
				}
			}
		}
		change_variable = {
			which = $which$
			value = 1
		}
	}
	
	if = {
		limit = {
			any_rival_country = {
				num_of_owned_provinces_with = {
					value = 4
					
				}
			}
		}
		change_variable = {
			which = $which$
			value = 1
		}
	}
	
	if = {
		limit = {
			any_rival_country = {
				num_of_owned_provinces_with = {
					value = 6
					
				}
			}
		}
		change_variable = {
			which = $which$
			value = 1
		}	
	}
	
	if = {
		limit = {
			any_rival_country = {
				num_of_owned_provinces_with = {
					value = 8
					
				}
			}
		}
		change_variable = {
			which = $which$
			value = 1
		}
	}
	
	if = {
		limit = {
			any_rival_country = {
				num_of_owned_provinces_with = {
					value = 10
					
				}
			}
		}
		change_variable = {
			which = $which$
			value = 1
		}
	}
	
	if = {
		limit = {
			any_rival_country = {
				num_of_owned_provinces_with = {
					value = 12
					
				}
			}
		}
		change_variable = {
			which = $which$
			value = 1
		}
	}
	
	if = {
		limit = {
			any_rival_country = {
				num_of_owned_provinces_with = {
					value = 14
					
				}
			}
		}
		change_variable = {
			which = $which$
			value = 1
		}
	}
	
	if = {
		limit = {
			any_rival_country = {
				num_of_owned_provinces_with = {
					value = 16
					
				}
			}
		}
		change_variable = {
			which = $which$
			value = 1
		}
	}
	
	if = {
		limit = {
			any_rival_country = {
				num_of_owned_provinces_with = {
					value = 18
					
				}
			}
		}
		change_variable = {
			which = $which$
			value = 1
		}
	}
	
	if = {
		limit = {
			any_rival_country = {
				num_of_owned_provinces_with = {
					value = 20
					
				}
			}
		}
		change_variable = {
			which = $which$
			value = 1
		}
	}
	
	if = {
		limit = {
			any_rival_country = {
				num_of_owned_provinces_with = {
					value = 22
					
				}
			}
		}
		change_variable = {
			which = $which$
			value = 1
		}
	}
	
	if = {
		limit = {
			any_rival_country = {
				num_of_owned_provinces_with = {
					value = 24
					
				}
			}
		}
		change_variable = {
			which = $which$
			value = 1
		}
	}
	
	if = {
		limit = {
			any_rival_country = {
				num_of_owned_provinces_with = {
					value = 26
					
				}
			}
		}
		change_variable = {
			which = $which$
			value = 1
		}
	}
	
	if = {
		limit = {
			any_rival_country = {
				num_of_owned_provinces_with = {
					value = 28
					
				}
			}
		}
		change_variable = {
			which = $which$
			value = 1
		}
	}
	
	if = {
		limit = {
			any_rival_country = {
				num_of_owned_provinces_with = {
					value = 30
					
				}
			}
		}
		change_variable = {
			which = $which$
			value = 1
		}
	}
	
	if = {
		limit = {
			any_rival_country = {
				num_of_owned_provinces_with = {
					value = 32
					
				}
			}
		}
		change_variable = {
			which = $which$
			value = 1
		}
	}
	
	if = {
		limit = {
			any_rival_country = {
				num_of_owned_provinces_with = {
					value = 34
					
				}
			}
		}
		change_variable = {
			which = $which$
			value = 1
		}
	}
	
	if = {
		limit = {
			any_rival_country = {
				num_of_owned_provinces_with = {
					value = 36
					
				}
			}
		}
		change_variable = {
			which = $which$
			value = 1
		}
	}
	
	if = {
		limit = {
			any_rival_country = {
				num_of_owned_provinces_with = {
					value = 38
					
				}
			}
		}
		change_variable = {
			which = $which$
			value = 1
		}
	}
	
	if = {
		limit = {
			any_rival_country = {
				num_of_owned_provinces_with = {
					value = 40
					
				}
			}
		}
		change_variable = {
			which = $which$
			value = 1
		}
	}
	
	if = {
		limit = {
			any_rival_country = {
				num_of_owned_provinces_with = {
					value = 42
					
				}
			}
		}
		change_variable = {
			which = $which$
			value = 1
		}
	}
	
	if = {
		limit = {
			any_rival_country = {
				num_of_owned_provinces_with = {
					value = 44
					
				}
			}
		}
		change_variable = {
			which = $which$
			value = 1
		}
	}
	
	if = {
		limit = {
			any_rival_country = {
				num_of_owned_provinces_with = {
					value = 46
					
				}
			}
		}
		change_variable = {
			which = $which$
			value = 1
		}
	}
	
	if = {
		limit = {
			any_rival_country = {
				num_of_owned_provinces_with = {
					value = 48
					
				}
			}
		}
		change_variable = {
			which = $which$
			value = 1
		}
	}
	
	if = {
		limit = {
			any_rival_country = {
				num_of_owned_provinces_with = {
					value = 50
					
				}
			}
		}
		change_variable = {
			which = $which$
			value = 1
		}
	}
	
	if = {
		limit = {
			any_rival_country = {
				num_of_owned_provinces_with = {
					value = 60
					
				}
			}
		}
		change_variable = {
			which = $which$
			value = 10
		}
	}
	
	if = {
		limit = {
			any_rival_country = {
				num_of_owned_provinces_with = {
					value = 70
					
				}
			}
		}
		change_variable = {
			which = $which$
			value = 10
		}
	}
	
	if = {
		limit = {
			any_rival_country = {
				num_of_owned_provinces_with = {
					value = 80
					
				}
			}
		}
		change_variable = {
			which = $which$
			value = 10
		}
	}
	
	if = {
		limit = {
			any_rival_country = {
				num_of_owned_provinces_with = {
					value = 90
					
				}
			}
		}
		change_variable = {
			which = $which$
			value = 10
		}
	}
	
	if = {
		limit = {
			any_rival_country = {
				num_of_owned_provinces_with = {
					value = 100
				}
			}
		}
		change_variable = {
			which = $which$
			value = 10
		}
	}
	
	if = {
		limit = {
			any_rival_country = {
				num_of_owned_provinces_with = {
					value = 110
				}
			}
		}
		change_variable = {
			which = $which$
			value = 10
		}
	}
	
	if = {
		limit = {
			any_rival_country = {
				num_of_owned_provinces_with = {
					value = 120
				}
			}
		}
		change_variable = {
			which = $which$
			value = 10
		}
	}
	
	if = {
		limit = {
			any_rival_country = {
				num_of_owned_provinces_with = {
					value = 140
				}
			}
		}
		change_variable = {
			which = $which$
			value = 10
		}
	}
	
	if = {
		limit = {
			any_rival_country = {
				num_of_owned_provinces_with = {
					value = 160
				}
			}
		}
		change_variable = {
			which = $which$
			value = 10
		}
	}
	
	if = {
		limit = {
			any_rival_country = {
				num_of_owned_provinces_with = {
					value = 180
				}
			}
		}
		change_variable = {
			which = $which$
			value = 10
		}
	}
	
	if = {
		limit = {
			any_rival_country = {
				num_of_owned_provinces_with = {
					value = 200
				}
			}
		}
		change_variable = {
			which = $which$
			value = 10
		}
	}
	
	if = {
		limit = {
			any_rival_country = {
				num_of_owned_provinces_with = {
					value = 225
				}
			}
		}
		change_variable = {
			which = $which$
			value = 25
		}
	}
	
	if = {
		limit = {
			any_rival_country = {
				num_of_owned_provinces_with = {
					value = 250
				}
			}
		}
		change_variable = {
			which = $which$
			value = 25
		}
	}
	
	if = {
		limit = {
			any_rival_country = {
				num_of_owned_provinces_with = {
					value = 275
				}
			}
		}
		change_variable = {
			which = $which$
			value = 25
		}
	}
	
	if = {
		limit = {
			any_rival_country = {
				num_of_owned_provinces_with = {
					value = 300
				}
			}
		}
		change_variable = {
			which = $which$
			value = 25
		}
	}
	
	if = {
		limit = {
			any_rival_country = {
				num_of_owned_provinces_with = {
					value = 325
				}
			}
		}
		change_variable = {
			which = $which$
			value = 25
		}
	}
	
	if = {
		limit = {
			any_rival_country = {
				num_of_owned_provinces_with = {
					value = 350
				}
			}
		}
		change_variable = {
			which = $which$
			value = 25
		}
	}
	
	if = {
		limit = {
			any_rival_country = {
				num_of_owned_provinces_with = {
					value = 375
				}
			}
		}
		change_variable = {
			which = $which$
			value = 25
		}
	}
	
	if = {
		limit = {
			any_rival_country = {
				num_of_owned_provinces_with = {
					value = 400
				}
			}
		}
		change_variable = {
			which = $which$
			value = 25
		}
	}
	
	if = {
		limit = {
			any_rival_country = {
				num_of_owned_provinces_with = {
					value = 425
				}
			}
		}
		change_variable = {
			which = $which$
			value = 25
		}
	}
	
	if = {
		limit = {
			any_rival_country = {
				num_of_owned_provinces_with = {
					value = 450
				}
			}
		}
		change_variable = {
			which = $which$
			value = 25
		}
	}
	
	if = {
		limit = {
			any_rival_country = {
				num_of_owned_provinces_with = {
					value = 475
				}
			}
		}
		change_variable = {
			which = $which$
			value = 25
		}
	}
	
	if = {
		limit = {
			any_rival_country = {
				num_of_owned_provinces_with = {
					value = 500
				}
			}
		}
		change_variable = {
			which = $which$
			value = 25
		}
	}

}


randomize_leader_pips_nonmagical_effect = {	#more chances for low pips in the random list
	set_variable={
		which=$which$ value=0
	}
	export_to_variable = {
		which = $which$
		value = MIL	
		who = ROOT
	}
	
	# if = {
		# limit = {
			# army_tradition = 20
		# }
		# change_variable = {
			# which = $which$
			# value = 1
		# }
	# }
	# if = {
		# limit = {
			# army_tradition = 40
		# }
		# change_variable = {
			# which = $which$
			# value = 1
		# }
	# }
	# if = {
		# limit = {
			# army_tradition = 60
		# }
		# change_variable = {
			# which = $which$
			# value = 1
		# }
	# }
	# if = {
		# limit = {
			# army_tradition = 80
		# }
		# change_variable = {
			# which = $which$
			# value = 1
		# }
	# }
	# if = {
		# limit = {
			# army_tradition = 100
		# }
		# change_variable = {
			# which = $which$
			# value = 1
		# }
	# }
	
	random_list = {
		10 = {
			change_variable = {
				which = $which$
				value = 0
			}
		}
		10 = {
			subtract_variable = {
				which = $which$
				value = 1
			}
		}
		10 = {
			subtract_variable = {
				which = $which$
				value = 2
			}
		}
		10 = {
			subtract_variable = {
				which = $which$
				value = 3
			}
		}
		10 = {
			subtract_variable = {
				which = $which$
				value = 4
			}
		}
		10 = {
			subtract_variable = {
				which = $which$
				value = 5
			}
		}
		10 = {
			change_variable = {
				which = $which$
				value = 1
			}
		}
		10 = {
			change_variable = {
				which = $which$
				value = 2
			}
		}
		10 = {
			change_variable = {
				which = $which$
				value = 3
			}
		}
		10 = {
			subtract_variable = {
				which = $which$
				value = 1
			}
		}
	}
	
	#Invalid number checks
	if = {
		limit = {
			check_variable = {
				which = $which$
				value = 12	
			}
		}
		set_variable = {
			which = $which$
			value = 11	
		}
	}
	if = {
		limit = {
			check_variable = {
				which = $which$
				value = 0	
			}
			NOT = {
				check_variable = {
					which = $which$
					value = 1
				}
			}
		}
		set_variable = {
			which = $which$
			value = 0
		}
	}
}

randomize_leader_pips_magical_effect = {	#more chances for high pips in the random list
	set_variable={
		which=$which$ value=0
	}
	export_to_variable = {
		which = $which$
		value = MIL
		who = ROOT
	}

	
	# if = {
		# limit = {
			# army_tradition = 20
		# }
		# change_variable = {
			# which = $which$
			# value = 1
		# }
	# }
	# if = {
		# limit = {
			# army_tradition = 40
		# }
		# change_variable = {
			# which = $which$
			# value = 1
		# }
	# }
	# if = {
		# limit = {
			# army_tradition = 60
		# }
		# change_variable = {
			# which = $which$
			# value = 1
		# }
	# }
	# if = {
		# limit = {
			# army_tradition = 80
		# }
		# change_variable = {
			# which = $which$
			# value = 1
		# }
	# }
	# if = {
		# limit = {
			# army_tradition = 100
		# }
		# change_variable = {
			# which = $which$
			# value = 1
		# }
	# }
	
	
	random_list = {
		10 = {
			change_variable = {
				which = $which$
				value = 4
			}
		}
		10 = {
			change_variable = {
				which = $which$
				value = 4
			}
		}
		10 = {
			change_variable = {
				which = $which$
				value = 5
			}
		}
		10 = {
			change_variable = {
				which = $which$
				value = 6
			}
		}
		10 = {
			change_variable = {
				which = $which$
				value = 7
			}
		}
		10 = {
			change_variable = {
				which = $which$
				value = 8
			}
		}
		10 = {
			change_variable = {
				which = $which$
				value = 9
			}
		}
		10 = {
			change_variable = {
				which = $which$
				value = 10
			}
		}
		10 = {
			change_variable = {
				which = $which$
				value = 11
			}
		}
		10 = {
			change_variable = {
				which = $which$
				value = 12
			}
		}
	}
	
	#Invalid number checks
	if = {
		limit = {
			check_variable = {
				which = $which$
				value = 12	
			}
		}
		set_variable = {
			which = $which$
			value = 11	
		}
	}
	# if = {
		# limit = {
			# check_variable = {
				# which = $which$
				# value = 0	
			# }
			# NOT = {
				# check_variable = {
					# which = $which$
					# value = 1
				# }
			# }
		# }
		# set_variable = {
			# which = $which$
			# value = 0
		# }
	# }
}

set_add_relics_count = {
	hidden_effect = {
			REB = {
				if = {
					limit = {
						NOT = {
							check_variable = {
								which = num_precursor_relics
								value = 0
							}
						}
					}
					set_variable = {
						which = num_precursor_relics
						value = 4
					}
				}
				else = {
					change_variable = {
						which = num_precursor_relics
						value = 1
					}
				}
			}
		}
}

set_add_damestear_count = {
	hidden_effect = {
			REB = {
				if = {
					limit = {
						NOT = {
							check_variable = {
								which = num_damestear
								value = 0
							}
						}
					}
					set_variable = {
						which = num_damestear
						value = 1
					}
				}
				else = {
					change_variable = {
						which = num_damestear
						value = 1
					}
				}
			}
		}
}

set_rem_damestear_count = {
	hidden_effect = {
			REB = {
				if = {
					limit = {
						NOT = {
							check_variable = {
								which = rem_damestear
								value = 0
							}
						}
					}
					set_variable = {
						which = rem_damestear
						value = 1
					}
				}
				else = {
					change_variable = {
						which = rem_damestear
						value = 1
					}
				}
			}
		}
}

set_add_ruin_count = {
	hidden_effect = {
			REB = {
				if = {
					limit = {
						NOT = {
							check_variable = {
								which = num_ruin
								value = 0
							}
						}
					}
					set_variable = {
						which = num_ruin
						value = 1
					}
				}
				else = {
					change_variable = {
						which = num_ruin
						value = 1
					}
				}
			}
		}
}